controle/SCT_controlado/ALL0004/F0004CH1.CSV

Record Length,2.500000e+03,,   0.006600000000,   1.39680,
Sample Interval,2.000000e-05,,   0.006620000000,   1.39680,
Trigger Point,-3.300000000000e+02,,   0.006640000000,   1.39680,
,,,   0.006660000000,   1.39680,
,,,   0.006680000000,   1.39680,
,,,   0.006700000000,   1.39680,
Source,CH1,,   0.006720000000,   1.39680,
Vertical Units,V,,   0.006740000000,   1.39680,
Vertical Scale,2.000000e-02,,   0.006760000000,   1.39680,
Vertical Offset,-1.497600e+00,,   0.006780000000,   1.39680,
Horizontal Units,s,,   0.006800000000,   1.39680,
Horizontal Scale,5.000000e-03,,   0.006820000000,   1.39680,
Pt Fmt,Y,,   0.006840000000,   1.39680,
Yzero,0.000000e+00,,   0.006860000000,   1.39680,
Probe Atten,1.000000e+01,,   0.006880000000,   1.39680,
Model Number,TDS1012C-EDU,,   0.006900000000,   1.39680,
Serial Number,C013516,,   0.006920000000,   1.39680,
Firmware Version,FV:v25.07,,   0.006940000000,   1.39680,
,,,0.006960000000,   1.39680,
,,,0.006980000000,   1.39680,
,,,0.007000000000,   1.39680,
,,,0.007020000000,   1.39680,
,,,0.007040000000,   1.39680,
,,,0.007060000000,   1.39680,
,,,0.007080000000,   1.39680,
,,,0.007100000000,   1.39680,
,,,0.007120000000,   1.39680,
,,,0.007140000000,   1.39680,
,,,0.007160000000,   1.39680,
,,,0.007180000000,   1.39680,
,,,0.007200000000,   1.39680,
,,,0.007220000000,   1.39680,
,,,0.007240000000,   1.39680,
,,,0.007260000000,   1.39680,
,,,0.007280000000,   1.39680,
,,,0.007300000000,   1.39680,
,,,0.007320000000,   1.39680,
,,,0.007340000000,   1.39680,
,,,0.007360000000,   1.39680,
,,,0.007380000000,   1.39680,
,,,0.007400000000,   1.39680,
,,,0.007420000000,   1.39680,
,,,0.007440000000,   1.39680,
,,,0.007460000000,   1.39680,
,,,0.007480000000,   1.39680,
,,,0.007500000000,   1.39680,
,,,0.007520000000,   1.39680,
,,,0.007540000000,   1.39680,
,,,0.007560000000,   1.39680,
,,,0.007580000000,   1.39680,
,,,0.007600000000,   1.39680,
,,,0.007620000000,   1.39680,
,,,0.007640000000,   1.39680,
,,,0.007660000000,   1.39680,
,,,0.007680000000,   1.39680,
,,,0.007700000000,   1.39680,
,,,0.007720000000,   1.39680,
,,,0.007740000000,   1.39680,
,,,0.007760000000,   1.39680,
,,,0.007780000000,   1.39680,
,,,0.007800000000,   1.39680,
,,,0.007820000000,   1.39680,
,,,0.007840000000,   1.39680,
,,,0.007860000000,   1.39680,
,,,0.007880000000,   1.39680,
,,,0.007900000000,   1.39680,
,,,0.007920000000,   1.39680,
,,,0.007940000000,   1.39680,
,,,0.007960000000,   1.39680,
,,,0.007980000000,   1.39680,
,,,0.008000000000,   1.39680,
,,,0.008020000000,   1.39680,
,,,0.008040000000,   1.39680,
,,,0.008060000000,   1.39680,
,,,0.008080000000,   1.39680,
,,,0.008100000000,   1.39680,
,,,0.008120000000,   1.39680,
,,,0.008140000000,   1.39680,
,,,0.008160000000,   1.39680,
,,,0.008180000000,   1.39680,
,,,0.008200000000,   1.39680,
,,,0.008220000000,   1.39680,
,,,0.008240000000,   1.39680,
,,,0.008260000000,   1.39680,
,,,0.008280000000,   1.39680,
,,,0.008300000000,   1.39680,
,,,0.008320000000,   1.39680,
,,,0.008340000000,   1.39680,
,,,0.008360000000,   1.39680,
,,,0.008380000000,   1.39680,
,,,0.008400000000,   1.39680,
,,,0.008420000000,   1.39680,
,,,0.008440000000,   1.39680,
,,,0.008460000000,   1.39680,
,,,0.008480000000,   1.39680,
,,,0.008500000000,   1.39680,
,,,0.008520000000,   1.39680,
,,,0.008540000000,   1.39680,
,,,0.008560000000,   1.39680,
,,,0.008580000000,   1.39680,
,,,0.008600000000,   1.39680,
,,,0.008620000000,   1.39680,
,,,0.008640000000,   1.39680,
,,,0.008660000000,   1.39680,
,,,0.008680000000,   1.39680,
,,,0.008700000000,   1.39680,
,,,0.008720000000,   1.39680,
,,,0.008740000000,   1.39680,
,,,0.008760000000,   1.39680,
,,,0.008780000000,   1.39680,
,,,0.008800000000,   1.39680,
,,,0.008820000000,   1.39680,
,,,0.008840000000,   1.39680,
,,,0.008860000000,   1.39680,
,,,0.008880000000,   1.39680,
,,,0.008900000000,   1.39680,
,,,0.008920000000,   1.39680,
,,,0.008940000000,   1.39680,
,,,0.008960000000,   1.39680,
,,,0.008980000000,   1.39680,
,,,0.009000000000,   1.39680,
,,,0.009020000000,   1.39680,
,,,0.009040000000,   1.39680,
,,,0.009060000000,   1.39680,
,,,0.009080000000,   1.39680,
,,,0.009100000000,   1.39680,
,,,0.009120000000,   1.39680,
,,,0.009140000000,   1.39680,
,,,0.009160000000,   1.39680,
,,,0.009180000000,   1.39680,
,,,0.009200000000,   1.39680,
,,,0.009220000000,   1.39680,
,,,0.009240000000,   1.39680,
,,,0.009260000000,   1.39680,
,,,0.009280000000,   1.39680,
,,,0.009300000000,   1.39680,
,,,0.009320000000,   1.39680,
,,,0.009340000000,   1.39680,
,,,0.009360000000,   1.39680,
,,,0.009380000000,   1.39680,
,,,0.009400000000,   1.39680,
,,,0.009420000000,   1.39680,
,,,0.009440000000,   1.39680,
,,,0.009460000000,   1.39680,
,,,0.009480000000,   1.39680,
,,,0.009500000000,   1.39680,
,,,0.009520000000,   1.39680,
,,,0.009540000000,   1.39680,
,,,0.009560000000,   1.39680,
,,,0.009580000000,   1.39680,
,,,0.009600000000,   1.39680,
,,,0.009620000000,   1.39680,
,,,0.009640000000,   1.39680,
,,,0.009660000000,   1.39680,
,,,0.009680000000,   1.39680,
,,,0.009700000000,   1.39680,
,,,0.009720000000,   1.39680,
,,,0.009740000000,   1.39680,
,,,0.009760000000,   1.39680,
,,,0.009780000000,   1.39680,
,,,0.009800000000,   1.39680,
,,,0.009820000000,   1.39680,
,,,0.009840000000,   1.39680,
,,,0.009860000000,   1.39680,
,,,0.009880000000,   1.39680,
,,,0.009900000000,   1.39680,
,,,0.009920000000,   1.39680,
,,,0.009940000000,   1.39680,
,,,0.009960000000,   1.39680,
,,,0.009980000000,   1.39680,
,,,0.010000000000,   1.39680,
,,,0.010020000000,   1.39680,
,,,0.010040000000,   1.39680,
,,,0.010060000000,   1.39680,
,,,0.010080000000,   1.39680,
,,,0.010100000000,   1.39680,
,,,0.010120000000,   1.39680,
,,,0.010140000000,   1.39680,
,,,0.010160000000,   1.39680,
,,,0.010180000000,   1.39680,
,,,0.010200000000,   1.39680,
,,,0.010220000000,   1.39680,
,,,0.010240000000,   1.39680,
,,,0.010260000000,   1.39680,
,,,0.010280000000,   1.39680,
,,,0.010300000000,   1.39680,
,,,0.010320000000,   1.39680,
,,,0.010340000000,   1.39680,
,,,0.010360000000,   1.39680,
,,,0.010380000000,   1.39680,
,,,0.010400000000,   1.39680,
,,,0.010420000000,   1.39680,
,,,0.010440000000,   1.39680,
,,,0.010460000000,   1.39680,
,,,0.010480000000,   1.39680,
,,,0.010500000000,   1.39680,
,,,0.010520000000,   1.39680,
,,,0.010540000000,   1.39680,
,,,0.010560000000,   1.39680,
,,,0.010580000000,   1.39680,
,,,0.010600000000,   1.39680,
,,,0.010620000000,   1.39680,
,,,0.010640000000,   1.39680,
,,,0.010660000000,   1.39680,
,,,0.010680000000,   1.39680,
,,,0.010700000000,   1.39680,
,,,0.010720000000,   1.39680,
,,,0.010740000000,   1.39680,
,,,0.010760000000,   1.39680,
,,,0.010780000000,   1.39680,
,,,0.010800000000,   1.39680,
,,,0.010820000000,   1.39680,
,,,0.010840000000,   1.39680,
,,,0.010860000000,   1.39680,
,,,0.010880000000,   1.39680,
,,,0.010900000000,   1.39680,
,,,0.010920000000,   1.39680,
,,,0.010940000000,   1.39680,
,,,0.010960000000,   1.39680,
,,,0.010980000000,   1.39680,
,,,0.011000000000,   1.39680,
,,,0.011020000000,   1.39680,
,,,0.011040000000,   1.39680,
,,,0.011060000000,   1.39680,
,,,0.011080000000,   1.39680,
,,,0.011100000000,   1.39680,
,,,0.011120000000,   1.39680,
,,,0.011140000000,   1.39680,
,,,0.011160000000,   1.39680,
,,,0.011180000000,   1.39680,
,,,0.011200000000,   1.39680,
,,,0.011220000000,   1.39680,
,,,0.011240000000,   1.39680,
,,,0.011260000000,   1.39680,
,,,0.011280000000,   1.39680,
,,,0.011300000000,   1.39680,
,,,0.011320000000,   1.39680,
,,,0.011340000000,   1.39680,
,,,0.011360000000,   1.39680,
,,,0.011380000000,   1.39680,
,,,0.011400000000,   1.39680,
,,,0.011420000000,   1.39760,
,,,0.011440000000,   1.39760,
,,,0.011460000000,   1.39760,
,,,0.011480000000,   1.39840,
,,,0.011500000000,   1.39840,
,,,0.011520000000,   1.39840,
,,,0.011540000000,   1.39920,
,,,0.011560000000,   1.39920,
,,,0.011580000000,   1.40000,
,,,0.011600000000,   1.40000,
,,,0.011620000000,   1.39920,
,,,0.011640000000,   1.40080,
,,,0.011660000000,   1.40080,
,,,0.011680000000,   1.40160,
,,,0.011700000000,   1.40160,
,,,0.011720000000,   1.40240,
,,,0.011740000000,   1.40240,
,,,0.011760000000,   1.40320,
,,,0.011780000000,   1.40320,
,,,0.011800000000,   1.40400,
,,,0.011820000000,   1.40480,
,,,0.011840000000,   1.40480,
,,,0.011860000000,   1.40560,
,,,0.011880000000,   1.40640,
,,,0.011900000000,   1.40720,
,,,0.011920000000,   1.40720,
,,,0.011940000000,   1.40800,
,,,0.011960000000,   1.40880,
,,,0.011980000000,   1.40960,
,,,0.012000000000,   1.40960,
,,,0.012020000000,   1.41040,
,,,0.012040000000,   1.41120,
,,,0.012060000000,   1.41120,
,,,0.012080000000,   1.41200,
,,,0.012100000000,   1.41360,
,,,0.012120000000,   1.41360,
,,,0.012140000000,   1.41360,
,,,0.012160000000,   1.41440,
,,,0.012180000000,   1.41520,
,,,0.012200000000,   1.41680,
,,,0.012220000000,   1.41760,
,,,0.012240000000,   1.41760,
,,,0.012260000000,   1.41760,
,,,0.012280000000,   1.41920,
,,,0.012300000000,   1.41920,
,,,0.012320000000,   1.42080,
,,,0.012340000000,   1.42080,
,,,0.012360000000,   1.42160,
,,,0.012380000000,   1.42240,
,,,0.012400000000,   1.42320,
,,,0.012420000000,   1.42400,
,,,0.012440000000,   1.42320,
,,,0.012460000000,   1.42560,
,,,0.012480000000,   1.42560,
,,,0.012500000000,   1.42560,
,,,0.012520000000,   1.42640,
,,,0.012540000000,   1.42720,
,,,0.012560000000,   1.42800,
,,,0.012580000000,   1.42880,
,,,0.012600000000,   1.42880,
,,,0.012620000000,   1.42960,
,,,0.012640000000,   1.43120,
,,,0.012660000000,   1.43120,
,,,0.012680000000,   1.43120,
,,,0.012700000000,   1.43120,
,,,0.012720000000,   1.43280,
,,,0.012740000000,   1.43360,
,,,0.012760000000,   1.43360,
,,,0.012780000000,   1.43440,
,,,0.012800000000,   1.43600,
,,,0.012820000000,   1.43680,
,,,0.012840000000,   1.43600,
,,,0.012860000000,   1.43680,
,,,0.012880000000,   1.43760,
,,,0.012900000000,   1.43840,
,,,0.012920000000,   1.43920,
,,,0.012940000000,   1.44000,
,,,0.012960000000,   1.44000,
,,,0.012980000000,   1.44080,
,,,0.013000000000,   1.44160,
,,,0.013020000000,   1.44240,
,,,0.013040000000,   1.44320,
,,,0.013060000000,   1.44320,
,,,0.013080000000,   1.44400,
,,,0.013100000000,   1.44400,
,,,0.013120000000,   1.44560,
,,,0.013140000000,   1.44480,
,,,0.013160000000,   1.44560,
,,,0.013180000000,   1.44640,
,,,0.013200000000,   1.44720,
,,,0.013220000000,   1.44800,
,,,0.013240000000,   1.44880,
,,,0.013260000000,   1.44800,
,,,0.013280000000,   1.44880,
,,,0.013300000000,   1.44960,
,,,0.013320000000,   1.45040,
,,,0.013340000000,   1.45120,
,,,0.013360000000,   1.45120,
,,,0.013380000000,   1.45120,
,,,0.013400000000,   1.45280,
,,,0.013420000000,   1.45280,
,,,0.013440000000,   1.45440,
,,,0.013460000000,   1.45440,
,,,0.013480000000,   1.45520,
,,,0.013500000000,   1.45520,
,,,0.013520000000,   1.45600,
,,,0.013540000000,   1.45680,
,,,0.013560000000,   1.45760,
,,,0.013580000000,   1.45760,
,,,0.013600000000,   1.45840,
,,,0.013620000000,   1.45840,
,,,0.013640000000,   1.46000,
,,,0.013660000000,   1.45920,
,,,0.013680000000,   1.46000,
,,,0.013700000000,   1.46080,
,,,0.013720000000,   1.46160,
,,,0.013740000000,   1.46160,
,,,0.013760000000,   1.46240,
,,,0.013780000000,   1.46320,
,,,0.013800000000,   1.46400,
,,,0.013820000000,   1.46400,
,,,0.013840000000,   1.46400,
,,,0.013860000000,   1.46480,
,,,0.013880000000,   1.46560,
,,,0.013900000000,   1.46560,
,,,0.013920000000,   1.46720,
,,,0.013940000000,   1.46800,
,,,0.013960000000,   1.46800,
,,,0.013980000000,   1.46800,
,,,0.014000000000,   1.46880,
,,,0.014020000000,   1.46960,
,,,0.014040000000,   1.46880,
,,,0.014060000000,   1.46960,
,,,0.014080000000,   1.47040,
,,,0.014100000000,   1.47120,
,,,0.014120000000,   1.47200,
,,,0.014140000000,   1.47200,
,,,0.014160000000,   1.47280,
,,,0.014180000000,   1.47280,
,,,0.014200000000,   1.47360,
,,,0.014220000000,   1.47440,
,,,0.014240000000,   1.47440,
,,,0.014260000000,   1.47520,
,,,0.014280000000,   1.47600,
,,,0.014300000000,   1.47600,
,,,0.014320000000,   1.47680,
,,,0.014340000000,   1.47600,
,,,0.014360000000,   1.47680,
,,,0.014380000000,   1.47760,
,,,0.014400000000,   1.47760,
,,,0.014420000000,   1.47920,
,,,0.014440000000,   1.47920,
,,,0.014460000000,   1.47920,
,,,0.014480000000,   1.48000,
,,,0.014500000000,   1.48000,
,,,0.014520000000,   1.48160,
,,,0.014540000000,   1.48160,
,,,0.014560000000,   1.48160,
,,,0.014580000000,   1.48240,
,,,0.014600000000,   1.48240,
,,,0.014620000000,   1.48320,
,,,0.014640000000,   1.48320,
,,,0.014660000000,   1.48400,
,,,0.014680000000,   1.48480,
,,,0.014700000000,   1.48480,
,,,0.014720000000,   1.48480,
,,,0.014740000000,   1.48560,
,,,0.014760000000,   1.48640,
,,,0.014780000000,   1.48640,
,,,0.014800000000,   1.48720,
,,,0.014820000000,   1.48720,
,,,0.014840000000,   1.48800,
,,,0.014860000000,   1.48880,
,,,0.014880000000,   1.48880,
,,,0.014900000000,   1.48960,
,,,0.014920000000,   1.48960,
,,,0.014940000000,   1.48960,
,,,0.014960000000,   1.49040,
,,,0.014980000000,   1.49120,
,,,0.015000000000,   1.49120,
,,,0.015020000000,   1.49120,
,,,0.015040000000,   1.49200,
,,,0.015060000000,   1.49200,
,,,0.015080000000,   1.49200,
,,,0.015100000000,   1.49280,
,,,0.015120000000,   1.49360,
,,,0.015140000000,   1.49360,
,,,0.015160000000,   1.49440,
,,,0.015180000000,   1.49440,
,,,0.015200000000,   1.49520,
,,,0.015220000000,   1.49520,
,,,0.015240000000,   1.49600,
,,,0.015260000000,   1.49600,
,,,0.015280000000,   1.49680,
,,,0.015300000000,   1.49680,
,,,0.015320000000,   1.49760,
,,,0.015340000000,   1.49760,
,,,0.015360000000,   1.49760,
,,,0.015380000000,   1.49760,
,,,0.015400000000,   1.49840,
,,,0.015420000000,   1.49920,
,,,0.015440000000,   1.49920,
,,,0.015460000000,   1.50000,
,,,0.015480000000,   1.50000,
,,,0.015500000000,   1.50080,
,,,0.015520000000,   1.50080,
,,,0.015540000000,   1.50160,
,,,0.015560000000,   1.50160,
,,,0.015580000000,   1.50160,
,,,0.015600000000,   1.50240,
,,,0.015620000000,   1.50240,
,,,0.015640000000,   1.50320,
,,,0.015660000000,   1.50320,
,,,0.015680000000,   1.50320,
,,,0.015700000000,   1.50400,
,,,0.015720000000,   1.50400,
,,,0.015740000000,   1.50480,
,,,0.015760000000,   1.50480,
,,,0.015780000000,   1.50480,
,,,0.015800000000,   1.50560,
,,,0.015820000000,   1.50640,
,,,0.015840000000,   1.50640,
,,,0.015860000000,   1.50720,
,,,0.015880000000,   1.50640,
,,,0.015900000000,   1.50720,
,,,0.015920000000,   1.50720,
,,,0.015940000000,   1.50720,
,,,0.015960000000,   1.50800,
,,,0.015980000000,   1.50880,
,,,0.016000000000,   1.50800,
,,,0.016020000000,   1.50880,
,,,0.016040000000,   1.50880,
,,,0.016060000000,   1.50880,
,,,0.016080000000,   1.51040,
,,,0.016100000000,   1.51040,
,,,0.016120000000,   1.51040,
,,,0.016140000000,   1.51120,
,,,0.016160000000,   1.51120,
,,,0.016180000000,   1.51120,
,,,0.016200000000,   1.51200,
,,,0.016220000000,   1.51200,
,,,0.016240000000,   1.51200,
,,,0.016260000000,   1.51280,
,,,0.016280000000,   1.51200,
,,,0.016300000000,   1.51280,
,,,0.016320000000,   1.51360,
,,,0.016340000000,   1.51360,
,,,0.016360000000,   1.51360,
,,,0.016380000000,   1.51520,
,,,0.016400000000,   1.51440,
,,,0.016420000000,   1.51440,
,,,0.016440000000,   1.51520,
,,,0.016460000000,   1.51600,
,,,0.016480000000,   1.51600,
,,,0.016500000000,   1.51600,
,,,0.016520000000,   1.51680,
,,,0.016540000000,   1.51680,
,,,0.016560000000,   1.51680,
,,,0.016580000000,   1.51680,
,,,0.016600000000,   1.51760,
,,,0.016620000000,   1.51760,
,,,0.016640000000,   1.51760,
,,,0.016660000000,   1.51760,
,,,0.016680000000,   1.51840,
,,,0.016700000000,   1.51840,
,,,0.016720000000,   1.51840,
,,,0.016740000000,   1.52000,
,,,0.016760000000,   1.51920,
,,,0.016780000000,   1.52000,
,,,0.016800000000,   1.52000,
,,,0.016820000000,   1.52000,
,,,0.016840000000,   1.52080,
,,,0.016860000000,   1.52080,
,,,0.016880000000,   1.52080,
,,,0.016900000000,   1.52080,
,,,0.016920000000,   1.52160,
,,,0.016940000000,   1.52240,
,,,0.016960000000,   1.52160,
,,,0.016980000000,   1.52240,
,,,0.017000000000,   1.52240,
,,,0.017020000000,   1.52240,
,,,0.017040000000,   1.52320,
,,,0.017060000000,   1.52240,
,,,0.017080000000,   1.52320,
,,,0.017100000000,   1.52400,
,,,0.017120000000,   1.52400,
,,,0.017140000000,   1.52400,
,,,0.017160000000,   1.52480,
,,,0.017180000000,   1.52480,
,,,0.017200000000,   1.52480,
,,,0.017220000000,   1.52560,
,,,0.017240000000,   1.52480,
,,,0.017260000000,   1.52560,
,,,0.017280000000,   1.52480,
,,,0.017300000000,   1.52560,
,,,0.017320000000,   1.52560,
,,,0.017340000000,   1.52640,
,,,0.017360000000,   1.52560,
,,,0.017380000000,   1.52640,
,,,0.017400000000,   1.52640,
,,,0.017420000000,   1.52720,
,,,0.017440000000,   1.52800,
,,,0.017460000000,   1.52720,
,,,0.017480000000,   1.52800,
,,,0.017500000000,   1.52800,
,,,0.017520000000,   1.52800,
,,,0.017540000000,   1.52800,
,,,0.017560000000,   1.52800,
,,,0.017580000000,   1.52880,
,,,0.017600000000,   1.52880,
,,,0.017620000000,   1.52960,
,,,0.017640000000,   1.52960,
,,,0.017660000000,   1.52880,
,,,0.017680000000,   1.52960,
,,,0.017700000000,   1.52960,
,,,0.017720000000,   1.52960,
,,,0.017740000000,   1.52960,
,,,0.017760000000,   1.53040,
,,,0.017780000000,   1.53040,
,,,0.017800000000,   1.53040,
,,,0.017820000000,   1.53120,
,,,0.017840000000,   1.53120,
,,,0.017860000000,   1.53120,
,,,0.017880000000,   1.53120,
,,,0.017900000000,   1.53120,
,,,0.017920000000,   1.53200,
,,,0.017940000000,   1.53120,
,,,0.017960000000,   1.53200,
,,,0.017980000000,   1.53200,
,,,0.018000000000,   1.53200,
,,,0.018020000000,   1.53200,
,,,0.018040000000,   1.53280,
,,,0.018060000000,   1.53280,
,,,0.018080000000,   1.53200,
,,,0.018100000000,   1.53360,
,,,0.018120000000,   1.53280,
,,,0.018140000000,   1.53280,
,,,0.018160000000,   1.53360,
,,,0.018180000000,   1.53360,
,,,0.018200000000,   1.53360,
,,,0.018220000000,   1.53360,
,,,0.018240000000,   1.53360,
,,,0.018260000000,   1.53440,
,,,0.018280000000,   1.53440,
,,,0.018300000000,   1.53440,
,,,0.018320000000,   1.53440,
,,,0.018340000000,   1.53440,
,,,0.018360000000,   1.53440,
,,,0.018380000000,   1.53520,
,,,0.018400000000,   1.53520,
,,,0.018420000000,   1.53520,
,,,0.018440000000,   1.53520,
,,,0.018460000000,   1.53600,
,,,0.018480000000,   1.53520,
,,,0.018500000000,   1.53520,
,,,0.018520000000,   1.53600,
,,,0.018540000000,   1.53680,
,,,0.018560000000,   1.53600,
,,,0.018580000000,   1.53680,
,,,0.018600000000,   1.53680,
,,,0.018620000000,   1.53680,
,,,0.018640000000,   1.53680,
,,,0.018660000000,   1.53680,
,,,0.018680000000,   1.53680,
,,,0.018700000000,   1.53760,
,,,0.018720000000,   1.53680,
,,,0.018740000000,   1.53760,
,,,0.018760000000,   1.53760,
,,,0.018780000000,   1.53680,
,,,0.018800000000,   1.53760,
,,,0.018820000000,   1.53840,
,,,0.018840000000,   1.53760,
,,,0.018860000000,   1.53840,
,,,0.018880000000,   1.53760,
,,,0.018900000000,   1.53760,
,,,0.018920000000,   1.53840,
,,,0.018940000000,   1.53840,
,,,0.018960000000,   1.53840,
,,,0.018980000000,   1.53840,
,,,0.019000000000,   1.53840,
,,,0.019020000000,   1.53920,
,,,0.019040000000,   1.53920,
,,,0.019060000000,   1.53840,
,,,0.019080000000,   1.53840,
,,,0.019100000000,   1.53920,
,,,0.019120000000,   1.53920,
,,,0.019140000000,   1.53920,
,,,0.019160000000,   1.53920,
,,,0.019180000000,   1.54000,
,,,0.019200000000,   1.53920,
,,,0.019220000000,   1.54080,
,,,0.019240000000,   1.54000,
,,,0.019260000000,   1.54000,
,,,0.019280000000,   1.54000,
,,,0.019300000000,   1.54000,
,,,0.019320000000,   1.54000,
,,,0.019340000000,   1.54080,
,,,0.019360000000,   1.54080,
,,,0.019380000000,   1.54080,
,,,0.019400000000,   1.54080,
,,,0.019420000000,   1.54080,
,,,0.019440000000,   1.54160,
,,,0.019460000000,   1.54160,
,,,0.019480000000,   1.54080,
,,,0.019500000000,   1.54160,
,,,0.019520000000,   1.54160,
,,,0.019540000000,   1.54160,
,,,0.019560000000,   1.54160,
,,,0.019580000000,   1.54080,
,,,0.019600000000,   1.54080,
,,,0.019620000000,   1.54160,
,,,0.019640000000,   1.54160,
,,,0.019660000000,   1.54160,
