controle/SCT2_bloco2/ALL0003/F0003CH2.CSV

Record Length,2.500000e+03,,   0.018900000000,   1.43640,
Sample Interval,1.000000e-05,,   0.018910000000,   1.43760,
Trigger Point,-1.890000000000e+03,,   0.018920000000,   1.43760,
,,,   0.018930000000,   1.44000,
,,,   0.018940000000,   1.44120,
,,,   0.018950000000,   1.44240,
Source,CH2,,   0.018960000000,   1.44000,
Vertical Units,V,,   0.018970000000,   1.44120,
Vertical Scale,3.000000e-02,,   0.018980000000,   1.43880,
Vertical Offset,-1.500000e+00,,   0.018990000000,   1.43760,
Horizontal Units,s,,   0.019000000000,   1.43760,
Horizontal Scale,2.500000e-03,,   0.019010000000,   1.43400,
Pt Fmt,Y,,   0.019020000000,   1.43520,
Yzero,0.000000e+00,,   0.019030000000,   1.43520,
Probe Atten,1.000000e+01,,   0.019040000000,   1.43640,
Model Number,TDS1012C-EDU,,   0.019050000000,   1.43760,
Serial Number,C013516,,   0.019060000000,   1.44000,
Firmware Version,FV:v25.07,,   0.019070000000,   1.44000,
,,,0.019080000000,   1.44120,
,,,0.019090000000,   1.44000,
,,,0.019100000000,   1.44000,
,,,0.019110000000,   1.44000,
,,,0.019120000000,   1.43880,
,,,0.019130000000,   1.44000,
,,,0.019140000000,   1.44120,
,,,0.019150000000,   1.44120,
,,,0.019160000000,   1.44240,
,,,0.019170000000,   1.44240,
,,,0.019180000000,   1.44360,
,,,0.019190000000,   1.44360,
,,,0.019200000000,   1.44600,
,,,0.019210000000,   1.44360,
,,,0.019220000000,   1.44360,
,,,0.019230000000,   1.44480,
,,,0.019240000000,   1.44480,
,,,0.019250000000,   1.44480,
,,,0.019260000000,   1.44360,
,,,0.019270000000,   1.44360,
,,,0.019280000000,   1.44360,
,,,0.019290000000,   1.44600,
,,,0.019300000000,   1.44840,
,,,0.019310000000,   1.44720,
,,,0.019320000000,   1.44960,
,,,0.019330000000,   1.44840,
,,,0.019340000000,   1.45080,
,,,0.019350000000,   1.45080,
,,,0.019360000000,   1.44840,
,,,0.019370000000,   1.44600,
,,,0.019380000000,   1.44600,
,,,0.019390000000,   1.44600,
,,,0.019400000000,   1.44600,
,,,0.019410000000,   1.44480,
,,,0.019420000000,   1.44600,
,,,0.019430000000,   1.44720,
,,,0.019440000000,   1.44960,
,,,0.019450000000,   1.45080,
,,,0.019460000000,   1.45200,
,,,0.019470000000,   1.45320,
,,,0.019480000000,   1.45320,
,,,0.019490000000,   1.45320,
,,,0.019500000000,   1.45080,
,,,0.019510000000,   1.45080,
,,,0.019520000000,   1.44840,
,,,0.019530000000,   1.44840,
,,,0.019540000000,   1.44720,
,,,0.019550000000,   1.44840,
,,,0.019560000000,   1.44960,
,,,0.019570000000,   1.45200,
,,,0.019580000000,   1.45200,
,,,0.019590000000,   1.45440,
,,,0.019600000000,   1.45560,
,,,0.019610000000,   1.45680,
,,,0.019620000000,   1.45440,
,,,0.019630000000,   1.45440,
,,,0.019640000000,   1.45320,
,,,0.019650000000,   1.45320,
,,,0.019660000000,   1.45200,
,,,0.019670000000,   1.45200,
,,,0.019680000000,   1.45440,
,,,0.019690000000,   1.45560,
,,,0.019700000000,   1.45440,
,,,0.019710000000,   1.45440,
,,,0.019720000000,   1.45560,
,,,0.019730000000,   1.45560,
,,,0.019740000000,   1.45680,
,,,0.019750000000,   1.45680,
,,,0.019760000000,   1.45680,
,,,0.019770000000,   1.45560,
,,,0.019780000000,   1.45560,
,,,0.019790000000,   1.45440,
,,,0.019800000000,   1.45320,
,,,0.019810000000,   1.45440,
,,,0.019820000000,   1.45800,
,,,0.019830000000,   1.45920,
,,,0.019840000000,   1.46040,
,,,0.019850000000,   1.45920,
,,,0.019860000000,   1.45800,
,,,0.019870000000,   1.46040,
,,,0.019880000000,   1.45800,
,,,0.019890000000,   1.45920,
,,,0.019900000000,   1.46040,
,,,0.019910000000,   1.45680,
,,,0.019920000000,   1.45800,
,,,0.019930000000,   1.45800,
,,,0.019940000000,   1.45680,
,,,0.019950000000,   1.45800,
,,,0.019960000000,   1.45800,
,,,0.019970000000,   1.45680,
,,,0.019980000000,   1.45800,
,,,0.019990000000,   1.45920,
,,,0.020000000000,   1.46040,
,,,0.020010000000,   1.46040,
,,,0.020020000000,   1.46040,
,,,0.020030000000,   1.46160,
,,,0.020040000000,   1.46040,
,,,0.020050000000,   1.46040,
,,,0.020060000000,   1.46040,
,,,0.020070000000,   1.46280,
,,,0.020080000000,   1.46040,
,,,0.020090000000,   1.46160,
,,,0.020100000000,   1.46040,
,,,0.020110000000,   1.46040,
,,,0.020120000000,   1.45920,
,,,0.020130000000,   1.45800,
,,,0.020140000000,   1.45800,
,,,0.020150000000,   1.46040,
,,,0.020160000000,   1.46160,
,,,0.020170000000,   1.46160,
,,,0.020180000000,   1.46160,
,,,0.020190000000,   1.46160,
,,,0.020200000000,   1.46400,
,,,0.020210000000,   1.46280,
,,,0.020220000000,   1.46400,
,,,0.020230000000,   1.46280,
,,,0.020240000000,   1.46160,
,,,0.020250000000,   1.46040,
,,,0.020260000000,   1.46160,
,,,0.020270000000,   1.46160,
,,,0.020280000000,   1.46280,
,,,0.020290000000,   1.46400,
,,,0.020300000000,   1.46640,
,,,0.020310000000,   1.46640,
,,,0.020320000000,   1.46760,
,,,0.020330000000,   1.46760,
,,,0.020340000000,   1.47000,
,,,0.020350000000,   1.46880,
,,,0.020360000000,   1.46880,
,,,0.020370000000,   1.46880,
,,,0.020380000000,   1.46640,
,,,0.020390000000,   1.46640,
,,,0.020400000000,   1.46760,
,,,0.020410000000,   1.46640,
,,,0.020420000000,   1.46760,
,,,0.020430000000,   1.46760,
,,,0.020440000000,   1.46640,
,,,0.020450000000,   1.46880,
,,,0.020460000000,   1.46760,
,,,0.020470000000,   1.46880,
,,,0.020480000000,   1.46880,
,,,0.020490000000,   1.47000,
,,,0.020500000000,   1.47000,
,,,0.020510000000,   1.47240,
,,,0.020520000000,   1.47120,
,,,0.020530000000,   1.46880,
,,,0.020540000000,   1.46760,
,,,0.020550000000,   1.46880,
,,,0.020560000000,   1.47000,
,,,0.020570000000,   1.47000,
,,,0.020580000000,   1.47000,
,,,0.020590000000,   1.47000,
,,,0.020600000000,   1.47240,
,,,0.020610000000,   1.47120,
,,,0.020620000000,   1.47240,
,,,0.020630000000,   1.47240,
,,,0.020640000000,   1.47240,
,,,0.020650000000,   1.47240,
,,,0.020660000000,   1.47240,
,,,0.020670000000,   1.47120,
,,,0.020680000000,   1.47240,
,,,0.020690000000,   1.47240,
,,,0.020700000000,   1.47240,
,,,0.020710000000,   1.47240,
,,,0.020720000000,   1.47240,
,,,0.020730000000,   1.47240,
,,,0.020740000000,   1.47360,
,,,0.020750000000,   1.47480,
,,,0.020760000000,   1.47480,
,,,0.020770000000,   1.47360,
,,,0.020780000000,   1.47600,
,,,0.020790000000,   1.47480,
,,,0.020800000000,   1.47480,
,,,0.020810000000,   1.47480,
,,,0.020820000000,   1.47480,
,,,0.020830000000,   1.47360,
,,,0.020840000000,   1.47600,
,,,0.020850000000,   1.47600,
,,,0.020860000000,   1.47600,
,,,0.020870000000,   1.47720,
,,,0.020880000000,   1.47720,
,,,0.020890000000,   1.47840,
,,,0.020900000000,   1.47840,
,,,0.020910000000,   1.47840,
,,,0.020920000000,   1.47840,
,,,0.020930000000,   1.47720,
,,,0.020940000000,   1.47720,
,,,0.020950000000,   1.47720,
,,,0.020960000000,   1.47600,
,,,0.020970000000,   1.47720,
,,,0.020980000000,   1.47480,
,,,0.020990000000,   1.47720,
,,,0.021000000000,   1.47840,
,,,0.021010000000,   1.47960,
,,,0.021020000000,   1.48080,
,,,0.021030000000,   1.47960,
,,,0.021040000000,   1.48080,
,,,0.021050000000,   1.48200,
,,,0.021060000000,   1.48080,
,,,0.021070000000,   1.47960,
,,,0.021080000000,   1.47960,
,,,0.021090000000,   1.47840,
,,,0.021100000000,   1.47960,
,,,0.021110000000,   1.47960,
,,,0.021120000000,   1.47960,
,,,0.021130000000,   1.48080,
,,,0.021140000000,   1.48080,
,,,0.021150000000,   1.48200,
,,,0.021160000000,   1.48200,
,,,0.021170000000,   1.48320,
,,,0.021180000000,   1.48320,
,,,0.021190000000,   1.48320,
,,,0.021200000000,   1.48320,
,,,0.021210000000,   1.48320,
,,,0.021220000000,   1.48200,
,,,0.021230000000,   1.48200,
,,,0.021240000000,   1.48080,
,,,0.021250000000,   1.48200,
,,,0.021260000000,   1.48200,
,,,0.021270000000,   1.48320,
,,,0.021280000000,   1.48440,
,,,0.021290000000,   1.48440,
,,,0.021300000000,   1.48560,
,,,0.021310000000,   1.48560,
,,,0.021320000000,   1.48560,
,,,0.021330000000,   1.48320,
,,,0.021340000000,   1.48320,
,,,0.021350000000,   1.48440,
,,,0.021360000000,   1.48560,
,,,0.021370000000,   1.48440,
,,,0.021380000000,   1.48440,
,,,0.021390000000,   1.48560,
,,,0.021400000000,   1.48560,
,,,0.021410000000,   1.48560,
,,,0.021420000000,   1.48680,
,,,0.021430000000,   1.48800,
,,,0.021440000000,   1.48920,
,,,0.021450000000,   1.49040,
,,,0.021460000000,   1.48800,
,,,0.021470000000,   1.48800,
,,,0.021480000000,   1.48680,
,,,0.021490000000,   1.48560,
,,,0.021500000000,   1.48560,
,,,0.021510000000,   1.48800,
,,,0.021520000000,   1.48800,
,,,0.021530000000,   1.48920,
,,,0.021540000000,   1.48800,
,,,0.021550000000,   1.48920,
,,,0.021560000000,   1.48920,
,,,0.021570000000,   1.49040,
,,,0.021580000000,   1.49040,
,,,0.021590000000,   1.49160,
,,,0.021600000000,   1.49160,
,,,0.021610000000,   1.49160,
,,,0.021620000000,   1.49040,
,,,0.021630000000,   1.49040,
,,,0.021640000000,   1.49040,
,,,0.021650000000,   1.48920,
,,,0.021660000000,   1.48800,
,,,0.021670000000,   1.48800,
,,,0.021680000000,   1.48920,
,,,0.021690000000,   1.49040,
,,,0.021700000000,   1.49160,
,,,0.021710000000,   1.49160,
,,,0.021720000000,   1.49400,
,,,0.021730000000,   1.49280,
,,,0.021740000000,   1.49280,
,,,0.021750000000,   1.49400,
,,,0.021760000000,   1.49280,
,,,0.021770000000,   1.49280,
,,,0.021780000000,   1.49040,
,,,0.021790000000,   1.49040,
,,,0.021800000000,   1.49040,
,,,0.021810000000,   1.49040,
,,,0.021820000000,   1.49160,
,,,0.021830000000,   1.49160,
,,,0.021840000000,   1.49280,
,,,0.021850000000,   1.49280,
,,,0.021860000000,   1.49400,
,,,0.021870000000,   1.49400,
,,,0.021880000000,   1.49400,
,,,0.021890000000,   1.49400,
,,,0.021900000000,   1.49520,
,,,0.021910000000,   1.49400,
,,,0.021920000000,   1.49520,
,,,0.021930000000,   1.49520,
,,,0.021940000000,   1.49280,
,,,0.021950000000,   1.49280,
,,,0.021960000000,   1.49400,
,,,0.021970000000,   1.49400,
,,,0.021980000000,   1.49400,
,,,0.021990000000,   1.49640,
,,,0.022000000000,   1.49640,
,,,0.022010000000,   1.49760,
,,,0.022020000000,   1.49760,
,,,0.022030000000,   1.49760,
,,,0.022040000000,   1.49760,
,,,0.022050000000,   1.49760,
,,,0.022060000000,   1.49760,
,,,0.022070000000,   1.49520,
,,,0.022080000000,   1.49520,
,,,0.022090000000,   1.49760,
,,,0.022100000000,   1.49760,
,,,0.022110000000,   1.49520,
,,,0.022120000000,   1.49640,
,,,0.022130000000,   1.50000,
,,,0.022140000000,   1.49880,
,,,0.022150000000,   1.50000,
,,,0.022160000000,   1.49880,
,,,0.022170000000,   1.49880,
,,,0.022180000000,   1.50000,
,,,0.022190000000,   1.49880,
,,,0.022200000000,   1.49880,
,,,0.022210000000,   1.49880,
,,,0.022220000000,   1.49760,
,,,0.022230000000,   1.49880,
,,,0.022240000000,   1.49880,
,,,0.022250000000,   1.50120,
,,,0.022260000000,   1.50120,
,,,0.022270000000,   1.50120,
,,,0.022280000000,   1.50000,
,,,0.022290000000,   1.50240,
,,,0.022300000000,   1.50120,
,,,0.022310000000,   1.50000,
,,,0.022320000000,   1.50000,
,,,0.022330000000,   1.50000,
,,,0.022340000000,   1.50000,
,,,0.022350000000,   1.50120,
,,,0.022360000000,   1.50120,
,,,0.022370000000,   1.50120,
,,,0.022380000000,   1.50240,
,,,0.022390000000,   1.50480,
,,,0.022400000000,   1.50360,
,,,0.022410000000,   1.50360,
,,,0.022420000000,   1.50480,
,,,0.022430000000,   1.50480,
,,,0.022440000000,   1.50240,
,,,0.022450000000,   1.50360,
,,,0.022460000000,   1.50240,
,,,0.022470000000,   1.50120,
,,,0.022480000000,   1.50240,
,,,0.022490000000,   1.50360,
,,,0.022500000000,   1.50480,
,,,0.022510000000,   1.50480,
,,,0.022520000000,   1.50720,
,,,0.022530000000,   1.50720,
,,,0.022540000000,   1.50720,
,,,0.022550000000,   1.50720,
,,,0.022560000000,   1.50720,
,,,0.022570000000,   1.50840,
,,,0.022580000000,   1.50480,
,,,0.022590000000,   1.50480,
,,,0.022600000000,   1.50600,
,,,0.022610000000,   1.50600,
,,,0.022620000000,   1.50600,
,,,0.022630000000,   1.50720,
,,,0.022640000000,   1.50480,
,,,0.022650000000,   1.50600,
,,,0.022660000000,   1.50480,
,,,0.022670000000,   1.50480,
,,,0.022680000000,   1.50480,
,,,0.022690000000,   1.50720,
,,,0.022700000000,   1.50600,
,,,0.022710000000,   1.50600,
,,,0.022720000000,   1.50720,
,,,0.022730000000,   1.50480,
,,,0.022740000000,   1.50840,
,,,0.022750000000,   1.50840,
,,,0.022760000000,   1.50960,
,,,0.022770000000,   1.50960,
,,,0.022780000000,   1.50840,
,,,0.022790000000,   1.50720,
,,,0.022800000000,   1.50720,
,,,0.022810000000,   1.50960,
,,,0.022820000000,   1.50840,
,,,0.022830000000,   1.50840,
,,,0.022840000000,   1.50840,
,,,0.022850000000,   1.50960,
,,,0.022860000000,   1.50960,
,,,0.022870000000,   1.50960,
,,,0.022880000000,   1.51080,
,,,0.022890000000,   1.51080,
,,,0.022900000000,   1.51320,
,,,0.022910000000,   1.51200,
,,,0.022920000000,   1.51200,
,,,0.022930000000,   1.51080,
,,,0.022940000000,   1.51080,
,,,0.022950000000,   1.51080,
,,,0.022960000000,   1.51200,
,,,0.022970000000,   1.51080,
,,,0.022980000000,   1.51200,
,,,0.022990000000,   1.51200,
,,,0.023000000000,   1.51080,
,,,0.023010000000,   1.51200,
,,,0.023020000000,   1.51200,
,,,0.023030000000,   1.51320,
,,,0.023040000000,   1.51080,
,,,0.023050000000,   1.51200,
,,,0.023060000000,   1.51080,
,,,0.023070000000,   1.51200,
,,,0.023080000000,   1.51200,
,,,0.023090000000,   1.51200,
,,,0.023100000000,   1.51200,
,,,0.023110000000,   1.51200,
,,,0.023120000000,   1.51200,
,,,0.023130000000,   1.51320,
,,,0.023140000000,   1.51560,
,,,0.023150000000,   1.51680,
,,,0.023160000000,   1.51560,
,,,0.023170000000,   1.51440,
,,,0.023180000000,   1.51440,
,,,0.023190000000,   1.51440,
,,,0.023200000000,   1.51320,
,,,0.023210000000,   1.51320,
,,,0.023220000000,   1.51440,
,,,0.023230000000,   1.51560,
,,,0.023240000000,   1.51440,
,,,0.023250000000,   1.51560,
,,,0.023260000000,   1.51680,
,,,0.023270000000,   1.51680,
,,,0.023280000000,   1.51920,
,,,0.023290000000,   1.51920,
,,,0.023300000000,   1.51920,
,,,0.023310000000,   1.51800,
,,,0.023320000000,   1.51680,
,,,0.023330000000,   1.51560,
,,,0.023340000000,   1.51320,
,,,0.023350000000,   1.51440,
,,,0.023360000000,   1.51320,
,,,0.023370000000,   1.51440,
,,,0.023380000000,   1.51560,
,,,0.023390000000,   1.51560,
,,,0.023400000000,   1.51800,
,,,0.023410000000,   1.51800,
,,,0.023420000000,   1.51800,
,,,0.023430000000,   1.51680,
,,,0.023440000000,   1.51680,
,,,0.023450000000,   1.51800,
,,,0.023460000000,   1.51680,
,,,0.023470000000,   1.51560,
,,,0.023480000000,   1.51560,
,,,0.023490000000,   1.51680,
,,,0.023500000000,   1.51680,
,,,0.023510000000,   1.51560,
,,,0.023520000000,   1.51800,
,,,0.023530000000,   1.51920,
,,,0.023540000000,   1.52040,
,,,0.023550000000,   1.52040,
,,,0.023560000000,   1.52040,
,,,0.023570000000,   1.52160,
,,,0.023580000000,   1.52040,
,,,0.023590000000,   1.52040,
,,,0.023600000000,   1.51800,
,,,0.023610000000,   1.51800,
,,,0.023620000000,   1.51800,
,,,0.023630000000,   1.51920,
,,,0.023640000000,   1.52040,
,,,0.023650000000,   1.51920,
,,,0.023660000000,   1.52040,
,,,0.023670000000,   1.52040,
,,,0.023680000000,   1.52040,
,,,0.023690000000,   1.52040,
,,,0.023700000000,   1.52160,
,,,0.023710000000,   1.52160,
,,,0.023720000000,   1.52280,
,,,0.023730000000,   1.52280,
,,,0.023740000000,   1.52280,
,,,0.023750000000,   1.52280,
,,,0.023760000000,   1.52280,
,,,0.023770000000,   1.52400,
,,,0.023780000000,   1.52400,
,,,0.023790000000,   1.52160,
,,,0.023800000000,   1.52280,
,,,0.023810000000,   1.52280,
,,,0.023820000000,   1.52280,
,,,0.023830000000,   1.52400,
,,,0.023840000000,   1.52280,
,,,0.023850000000,   1.52400,
,,,0.023860000000,   1.52400,
,,,0.023870000000,   1.52400,
,,,0.023880000000,   1.52520,
,,,0.023890000000,   1.52520,
,,,0.023900000000,   1.52520,
,,,0.023910000000,   1.52760,
,,,0.023920000000,   1.52520,
,,,0.023930000000,   1.52280,
,,,0.023940000000,   1.52400,
,,,0.023950000000,   1.52400,
,,,0.023960000000,   1.52400,
,,,0.023970000000,   1.52400,
,,,0.023980000000,   1.52400,
,,,0.023990000000,   1.52640,
,,,0.024000000000,   1.52760,
,,,0.024010000000,   1.52760,
,,,0.024020000000,   1.52760,
,,,0.024030000000,   1.52880,
,,,0.024040000000,   1.52880,
,,,0.024050000000,   1.52880,
,,,0.024060000000,   1.52520,
,,,0.024070000000,   1.52520,
,,,0.024080000000,   1.52640,
,,,0.024090000000,   1.52520,
,,,0.024100000000,   1.52640,
,,,0.024110000000,   1.52640,
,,,0.024120000000,   1.52760,
,,,0.024130000000,   1.52880,
,,,0.024140000000,   1.53120,
,,,0.024150000000,   1.52880,
,,,0.024160000000,   1.53240,
,,,0.024170000000,   1.53240,
,,,0.024180000000,   1.53000,
,,,0.024190000000,   1.53000,
,,,0.024200000000,   1.52880,
,,,0.024210000000,   1.52760,
,,,0.024220000000,   1.52640,
,,,0.024230000000,   1.52640,
,,,0.024240000000,   1.52760,
,,,0.024250000000,   1.52880,
,,,0.024260000000,   1.53240,
,,,0.024270000000,   1.53120,
,,,0.024280000000,   1.53120,
,,,0.024290000000,   1.53240,
,,,0.024300000000,   1.53240,
,,,0.024310000000,   1.53240,
,,,0.024320000000,   1.53120,
,,,0.024330000000,   1.52880,
,,,0.024340000000,   1.53000,
,,,0.024350000000,   1.52880,
,,,0.024360000000,   1.52760,
,,,0.024370000000,   1.53000,
,,,0.024380000000,   1.53000,
,,,0.024390000000,   1.53120,
,,,0.024400000000,   1.53120,
,,,0.024410000000,   1.53240,
,,,0.024420000000,   1.53360,
,,,0.024430000000,   1.53120,
,,,0.024440000000,   1.53360,
,,,0.024450000000,   1.53240,
,,,0.024460000000,   1.53120,
,,,0.024470000000,   1.53120,
,,,0.024480000000,   1.53120,
,,,0.024490000000,   1.53120,
,,,0.024500000000,   1.53240,
,,,0.024510000000,   1.53240,
,,,0.024520000000,   1.53240,
,,,0.024530000000,   1.53360,
,,,0.024540000000,   1.53360,
,,,0.024550000000,   1.53360,
,,,0.024560000000,   1.53480,
,,,0.024570000000,   1.53480,
,,,0.024580000000,   1.53480,
,,,0.024590000000,   1.53360,
,,,0.024600000000,   1.53240,
,,,0.024610000000,   1.53360,
,,,0.024620000000,   1.53360,
,,,0.024630000000,   1.53480,
,,,0.024640000000,   1.53480,
,,,0.024650000000,   1.53360,
,,,0.024660000000,   1.53600,
,,,0.024670000000,   1.53720,
,,,0.024680000000,   1.53720,
,,,0.024690000000,   1.53600,
,,,0.024700000000,   1.53480,
,,,0.024710000000,   1.53480,
,,,0.024720000000,   1.53600,
,,,0.024730000000,   1.53600,
,,,0.024740000000,   1.53600,
,,,0.024750000000,   1.53720,
,,,0.024760000000,   1.53720,
,,,0.024770000000,   1.53720,
,,,0.024780000000,   1.53720,
,,,0.024790000000,   1.53720,
,,,0.024800000000,   1.53840,
,,,0.024810000000,   1.53720,
,,,0.024820000000,   1.53720,
,,,0.024830000000,   1.53840,
,,,0.024840000000,   1.53600,
,,,0.024850000000,   1.53720,
,,,0.024860000000,   1.53840,
,,,0.024870000000,   1.53840,
,,,0.024880000000,   1.53840,
,,,0.024890000000,   1.53960,
,,,0.024900000000,   1.54200,
,,,0.024910000000,   1.54200,
,,,0.024920000000,   1.54200,
,,,0.024930000000,   1.54080,
,,,0.024940000000,   1.54080,
,,,0.024950000000,   1.53960,
,,,0.024960000000,   1.53840,
,,,0.024970000000,   1.53720,
,,,0.024980000000,   1.53720,
,,,0.024990000000,   1.53840,
,,,0.025000000000,   1.53840,
,,,0.025010000000,   1.53840,
,,,0.025020000000,   1.53840,
,,,0.025030000000,   1.53960,
,,,0.025040000000,   1.53960,
,,,0.025050000000,   1.54200,
,,,0.025060000000,   1.54200,
,,,0.025070000000,   1.54080,
,,,0.025080000000,   1.54200,
,,,0.025090000000,   1.54200,
,,,0.025100000000,   1.54080,
,,,0.025110000000,   1.54080,
,,,0.025120000000,   1.53960,
,,,0.025130000000,   1.53600,
,,,0.025140000000,   1.53600,
,,,0.025150000000,   1.53840,
,,,0.025160000000,   1.54080,
,,,0.025170000000,   1.54200,
,,,0.025180000000,   1.54200,
,,,0.025190000000,   1.54200,
,,,0.025200000000,   1.54320,
,,,0.025210000000,   1.54200,
,,,0.025220000000,   1.54200,
,,,0.025230000000,   1.54440,
,,,0.025240000000,   1.54200,
,,,0.025250000000,   1.54200,
,,,0.025260000000,   1.54080,
,,,0.025270000000,   1.54200,
,,,0.025280000000,   1.54320,
,,,0.025290000000,   1.54560,
,,,0.025300000000,   1.54560,
,,,0.025310000000,   1.54560,
,,,0.025320000000,   1.54440,
,,,0.025330000000,   1.54440,
,,,0.025340000000,   1.54440,
,,,0.025350000000,   1.54440,
,,,0.025360000000,   1.54320,
,,,0.025370000000,   1.54440,
,,,0.025380000000,   1.54440,
,,,0.025390000000,   1.54320,
,,,0.025400000000,   1.54440,
,,,0.025410000000,   1.54560,
,,,0.025420000000,   1.54560,
,,,0.025430000000,   1.54680,
