controle/SCT2_bloco1/ALL0002/F0002CH2.CSV

Record Length,2.500000e+03,,   0.001500000000,   1.35600,
Sample Interval,2.000000e-06,,   0.001502000000,   1.35360,
Trigger Point,-7.500000000000e+02,,   0.001504000000,   1.35360,
,,,   0.001506000000,   1.35360,
,,,   0.001508000000,   1.35360,
,,,   0.001510000000,   1.35600,
Source,CH2,,   0.001512000000,   1.35360,
Vertical Units,V,,   0.001514000000,   1.35360,
Vertical Scale,2.000000e-02,,   0.001516000000,   1.35440,
Vertical Offset,-1.454400e+00,,   0.001518000000,   1.35360,
Horizontal Units,s,,   0.001520000000,   1.35600,
Horizontal Scale,5.000000e-04,,   0.001522000000,   1.35360,
Pt Fmt,Y,,   0.001524000000,   1.35360,
Yzero,0.000000e+00,,   0.001526000000,   1.35440,
Probe Atten,1.000000e+01,,   0.001528000000,   1.35360,
Model Number,TDS1012C-EDU,,   0.001530000000,   1.35520,
Serial Number,C013516,,   0.001532000000,   1.35360,
Firmware Version,FV:v25.07,,   0.001534000000,   1.35360,
,,,0.001536000000,   1.35440,
,,,0.001538000000,   1.35360,
,,,0.001540000000,   1.35440,
,,,0.001542000000,   1.35360,
,,,0.001544000000,   1.35360,
,,,0.001546000000,   1.35440,
,,,0.001548000000,   1.35360,
,,,0.001550000000,   1.35360,
,,,0.001552000000,   1.35360,
,,,0.001554000000,   1.35360,
,,,0.001556000000,   1.35360,
,,,0.001558000000,   1.35360,
,,,0.001560000000,   1.35440,
,,,0.001562000000,   1.35360,
,,,0.001564000000,   1.35360,
,,,0.001566000000,   1.35360,
,,,0.001568000000,   1.35360,
,,,0.001570000000,   1.35440,
,,,0.001572000000,   1.35360,
,,,0.001574000000,   1.35360,
,,,0.001576000000,   1.35360,
,,,0.001578000000,   1.35360,
,,,0.001580000000,   1.35440,
,,,0.001582000000,   1.35360,
,,,0.001584000000,   1.35520,
,,,0.001586000000,   1.35360,
,,,0.001588000000,   1.35360,
,,,0.001590000000,   1.35440,
,,,0.001592000000,   1.35360,
,,,0.001594000000,   1.35520,
,,,0.001596000000,   1.35440,
,,,0.001598000000,   1.35360,
,,,0.001600000000,   1.35360,
,,,0.001602000000,   1.35360,
,,,0.001604000000,   1.35520,
,,,0.001606000000,   1.35440,
,,,0.001608000000,   1.35360,
,,,0.001610000000,   1.35360,
,,,0.001612000000,   1.35360,
,,,0.001614000000,   1.35440,
,,,0.001616000000,   1.35520,
,,,0.001618000000,   1.35360,
,,,0.001620000000,   1.35440,
,,,0.001622000000,   1.35360,
,,,0.001624000000,   1.35440,
,,,0.001626000000,   1.35440,
,,,0.001628000000,   1.35360,
,,,0.001630000000,   1.35440,
,,,0.001632000000,   1.35360,
,,,0.001634000000,   1.35360,
,,,0.001636000000,   1.35520,
,,,0.001638000000,   1.35360,
,,,0.001640000000,   1.35520,
,,,0.001642000000,   1.35360,
,,,0.001644000000,   1.35360,
,,,0.001646000000,   1.35520,
,,,0.001648000000,   1.35360,
,,,0.001650000000,   1.35440,
,,,0.001652000000,   1.35360,
,,,0.001654000000,   1.35360,
,,,0.001656000000,   1.35440,
,,,0.001658000000,   1.35360,
,,,0.001660000000,   1.35440,
,,,0.001662000000,   1.35360,
,,,0.001664000000,   1.35360,
,,,0.001666000000,   1.35440,
,,,0.001668000000,   1.35360,
,,,0.001670000000,   1.35440,
,,,0.001672000000,   1.35360,
,,,0.001674000000,   1.35360,
,,,0.001676000000,   1.35440,
,,,0.001678000000,   1.35360,
,,,0.001680000000,   1.35440,
,,,0.001682000000,   1.35360,
,,,0.001684000000,   1.35360,
,,,0.001686000000,   1.35360,
,,,0.001688000000,   1.35360,
,,,0.001690000000,   1.35440,
,,,0.001692000000,   1.35360,
,,,0.001694000000,   1.35360,
,,,0.001696000000,   1.35360,
,,,0.001698000000,   1.35360,
,,,0.001700000000,   1.35520,
,,,0.001702000000,   1.35360,
,,,0.001704000000,   1.35360,
,,,0.001706000000,   1.35360,
,,,0.001708000000,   1.35360,
,,,0.001710000000,   1.35520,
,,,0.001712000000,   1.35440,
,,,0.001714000000,   1.35440,
,,,0.001716000000,   1.35360,
,,,0.001718000000,   1.35360,
,,,0.001720000000,   1.35520,
,,,0.001722000000,   1.35360,
,,,0.001724000000,   1.35440,
,,,0.001726000000,   1.35440,
,,,0.001728000000,   1.35360,
,,,0.001730000000,   1.35520,
,,,0.001732000000,   1.35360,
,,,0.001734000000,   1.35440,
,,,0.001736000000,   1.35440,
,,,0.001738000000,   1.35360,
,,,0.001740000000,   1.35520,
,,,0.001742000000,   1.35360,
,,,0.001744000000,   1.35440,
,,,0.001746000000,   1.35440,
,,,0.001748000000,   1.35360,
,,,0.001750000000,   1.35440,
,,,0.001752000000,   1.35360,
,,,0.001754000000,   1.35440,
,,,0.001756000000,   1.35360,
,,,0.001758000000,   1.35360,
,,,0.001760000000,   1.35440,
,,,0.001762000000,   1.35440,
,,,0.001764000000,   1.35360,
,,,0.001766000000,   1.35440,
,,,0.001768000000,   1.35360,
,,,0.001770000000,   1.35440,
,,,0.001772000000,   1.35440,
,,,0.001774000000,   1.35360,
,,,0.001776000000,   1.35440,
,,,0.001778000000,   1.35360,
,,,0.001780000000,   1.35520,
,,,0.001782000000,   1.35440,
,,,0.001784000000,   1.35360,
,,,0.001786000000,   1.35520,
,,,0.001788000000,   1.35360,
,,,0.001790000000,   1.35440,
,,,0.001792000000,   1.35440,
,,,0.001794000000,   1.35360,
,,,0.001796000000,   1.35520,
,,,0.001798000000,   1.35360,
,,,0.001800000000,   1.35440,
,,,0.001802000000,   1.35520,
,,,0.001804000000,   1.35360,
,,,0.001806000000,   1.35520,
,,,0.001808000000,   1.35360,
,,,0.001810000000,   1.35440,
,,,0.001812000000,   1.35440,
,,,0.001814000000,   1.35360,
,,,0.001816000000,   1.35520,
,,,0.001818000000,   1.35360,
,,,0.001820000000,   1.35360,
,,,0.001822000000,   1.35440,
,,,0.001824000000,   1.35360,
,,,0.001826000000,   1.35440,
,,,0.001828000000,   1.35360,
,,,0.001830000000,   1.35440,
,,,0.001832000000,   1.35440,
,,,0.001834000000,   1.35440,
,,,0.001836000000,   1.35440,
,,,0.001838000000,   1.35360,
,,,0.001840000000,   1.35520,
,,,0.001842000000,   1.35440,
,,,0.001844000000,   1.35440,
,,,0.001846000000,   1.35360,
,,,0.001848000000,   1.35360,
,,,0.001850000000,   1.35600,
,,,0.001852000000,   1.35520,
,,,0.001854000000,   1.35520,
,,,0.001856000000,   1.35360,
,,,0.001858000000,   1.35360,
,,,0.001860000000,   1.35600,
,,,0.001862000000,   1.35440,
,,,0.001864000000,   1.35520,
,,,0.001866000000,   1.35360,
,,,0.001868000000,   1.35360,
,,,0.001870000000,   1.35680,
,,,0.001872000000,   1.35520,
,,,0.001874000000,   1.35520,
,,,0.001876000000,   1.35440,
,,,0.001878000000,   1.35360,
,,,0.001880000000,   1.35680,
,,,0.001882000000,   1.35600,
,,,0.001884000000,   1.35520,
,,,0.001886000000,   1.35520,
,,,0.001888000000,   1.35360,
,,,0.001890000000,   1.35600,
,,,0.001892000000,   1.35680,
,,,0.001894000000,   1.35520,
,,,0.001896000000,   1.35520,
,,,0.001898000000,   1.35360,
,,,0.001900000000,   1.35600,
,,,0.001902000000,   1.35760,
,,,0.001904000000,   1.35520,
,,,0.001906000000,   1.35520,
,,,0.001908000000,   1.35440,
,,,0.001910000000,   1.35600,
,,,0.001912000000,   1.35760,
,,,0.001914000000,   1.35440,
,,,0.001916000000,   1.35600,
,,,0.001918000000,   1.35360,
,,,0.001920000000,   1.35600,
,,,0.001922000000,   1.35760,
,,,0.001924000000,   1.35520,
,,,0.001926000000,   1.35600,
,,,0.001928000000,   1.35440,
,,,0.001930000000,   1.35600,
,,,0.001932000000,   1.35760,
,,,0.001934000000,   1.35600,
,,,0.001936000000,   1.35600,
,,,0.001938000000,   1.35520,
,,,0.001940000000,   1.35760,
,,,0.001942000000,   1.35760,
,,,0.001944000000,   1.35600,
,,,0.001946000000,   1.35680,
,,,0.001948000000,   1.35520,
,,,0.001950000000,   1.35760,
,,,0.001952000000,   1.35840,
,,,0.001954000000,   1.35680,
,,,0.001956000000,   1.35760,
,,,0.001958000000,   1.35600,
,,,0.001960000000,   1.35840,
,,,0.001962000000,   1.35920,
,,,0.001964000000,   1.35680,
,,,0.001966000000,   1.35840,
,,,0.001968000000,   1.35680,
,,,0.001970000000,   1.35920,
,,,0.001972000000,   1.35920,
,,,0.001974000000,   1.35840,
,,,0.001976000000,   1.35840,
,,,0.001978000000,   1.35760,
,,,0.001980000000,   1.36160,
,,,0.001982000000,   1.36080,
,,,0.001984000000,   1.35920,
,,,0.001986000000,   1.36000,
,,,0.001988000000,   1.35920,
,,,0.001990000000,   1.36320,
,,,0.001992000000,   1.36240,
,,,0.001994000000,   1.35920,
,,,0.001996000000,   1.36000,
,,,0.001998000000,   1.35920,
,,,0.002000000000,   1.36320,
,,,0.002002000000,   1.36320,
,,,0.002004000000,   1.36080,
,,,0.002006000000,   1.36240,
,,,0.002008000000,   1.36000,
,,,0.002010000000,   1.36400,
,,,0.002012000000,   1.36320,
,,,0.002014000000,   1.36080,
,,,0.002016000000,   1.36320,
,,,0.002018000000,   1.36160,
,,,0.002020000000,   1.36400,
,,,0.002022000000,   1.36480,
,,,0.002024000000,   1.36160,
,,,0.002026000000,   1.36400,
,,,0.002028000000,   1.36160,
,,,0.002030000000,   1.36320,
,,,0.002032000000,   1.36400,
,,,0.002034000000,   1.36240,
,,,0.002036000000,   1.36400,
,,,0.002038000000,   1.36240,
,,,0.002040000000,   1.36320,
,,,0.002042000000,   1.36560,
,,,0.002044000000,   1.36320,
,,,0.002046000000,   1.36480,
,,,0.002048000000,   1.36400,
,,,0.002050000000,   1.36480,
,,,0.002052000000,   1.36480,
,,,0.002054000000,   1.36400,
,,,0.002056000000,   1.36480,
,,,0.002058000000,   1.36320,
,,,0.002060000000,   1.36400,
,,,0.002062000000,   1.36400,
,,,0.002064000000,   1.36560,
,,,0.002066000000,   1.36560,
,,,0.002068000000,   1.36400,
,,,0.002070000000,   1.36480,
,,,0.002072000000,   1.36560,
,,,0.002074000000,   1.36560,
,,,0.002076000000,   1.36560,
,,,0.002078000000,   1.36480,
,,,0.002080000000,   1.36720,
,,,0.002082000000,   1.36640,
,,,0.002084000000,   1.36640,
,,,0.002086000000,   1.36560,
,,,0.002088000000,   1.36640,
,,,0.002090000000,   1.36800,
,,,0.002092000000,   1.36640,
,,,0.002094000000,   1.36640,
,,,0.002096000000,   1.36640,
,,,0.002098000000,   1.36720,
,,,0.002100000000,   1.36960,
,,,0.002102000000,   1.36800,
,,,0.002104000000,   1.36720,
,,,0.002106000000,   1.36880,
,,,0.002108000000,   1.36800,
,,,0.002110000000,   1.37200,
,,,0.002112000000,   1.36880,
,,,0.002114000000,   1.36800,
,,,0.002116000000,   1.36880,
,,,0.002118000000,   1.36800,
,,,0.002120000000,   1.37280,
,,,0.002122000000,   1.36960,
,,,0.002124000000,   1.36800,
,,,0.002126000000,   1.36960,
,,,0.002128000000,   1.37040,
,,,0.002130000000,   1.37440,
,,,0.002132000000,   1.37120,
,,,0.002134000000,   1.36960,
,,,0.002136000000,   1.37040,
,,,0.002138000000,   1.36960,
,,,0.002140000000,   1.37520,
,,,0.002142000000,   1.37360,
,,,0.002144000000,   1.37040,
,,,0.002146000000,   1.37040,
,,,0.002148000000,   1.37120,
,,,0.002150000000,   1.37360,
,,,0.002152000000,   1.37440,
,,,0.002154000000,   1.37120,
,,,0.002156000000,   1.37040,
,,,0.002158000000,   1.37280,
,,,0.002160000000,   1.37360,
,,,0.002162000000,   1.37600,
,,,0.002164000000,   1.37200,
,,,0.002166000000,   1.37120,
,,,0.002168000000,   1.37360,
,,,0.002170000000,   1.37440,
,,,0.002172000000,   1.37600,
,,,0.002174000000,   1.37280,
,,,0.002176000000,   1.37280,
,,,0.002178000000,   1.37360,
,,,0.002180000000,   1.37520,
,,,0.002182000000,   1.37600,
,,,0.002184000000,   1.37440,
,,,0.002186000000,   1.37360,
,,,0.002188000000,   1.37440,
,,,0.002190000000,   1.37520,
,,,0.002192000000,   1.37520,
,,,0.002194000000,   1.37440,
,,,0.002196000000,   1.37520,
,,,0.002198000000,   1.37440,
,,,0.002200000000,   1.37600,
,,,0.002202000000,   1.37520,
,,,0.002204000000,   1.37680,
,,,0.002206000000,   1.37600,
,,,0.002208000000,   1.37520,
,,,0.002210000000,   1.37680,
,,,0.002212000000,   1.37680,
,,,0.002214000000,   1.37680,
,,,0.002216000000,   1.37600,
,,,0.002218000000,   1.37520,
,,,0.002220000000,   1.37840,
,,,0.002222000000,   1.37600,
,,,0.002224000000,   1.37680,
,,,0.002226000000,   1.37600,
,,,0.002228000000,   1.37680,
,,,0.002230000000,   1.38000,
,,,0.002232000000,   1.37680,
,,,0.002234000000,   1.37680,
,,,0.002236000000,   1.37680,
,,,0.002238000000,   1.37680,
,,,0.002240000000,   1.38080,
,,,0.002242000000,   1.37840,
,,,0.002244000000,   1.37760,
,,,0.002246000000,   1.37760,
,,,0.002248000000,   1.37760,
,,,0.002250000000,   1.38160,
,,,0.002252000000,   1.38000,
,,,0.002254000000,   1.37760,
,,,0.002256000000,   1.37920,
,,,0.002258000000,   1.37840,
,,,0.002260000000,   1.38240,
,,,0.002262000000,   1.38080,
,,,0.002264000000,   1.37920,
,,,0.002266000000,   1.37920,
,,,0.002268000000,   1.38000,
,,,0.002270000000,   1.38160,
,,,0.002272000000,   1.38240,
,,,0.002274000000,   1.38080,
,,,0.002276000000,   1.38000,
,,,0.002278000000,   1.38080,
,,,0.002280000000,   1.38240,
,,,0.002282000000,   1.38400,
,,,0.002284000000,   1.38160,
,,,0.002286000000,   1.38080,
,,,0.002288000000,   1.38240,
,,,0.002290000000,   1.38320,
,,,0.002292000000,   1.38400,
,,,0.002294000000,   1.38240,
,,,0.002296000000,   1.38080,
,,,0.002298000000,   1.38240,
,,,0.002300000000,   1.38160,
,,,0.002302000000,   1.38560,
,,,0.002304000000,   1.38240,
,,,0.002306000000,   1.38240,
,,,0.002308000000,   1.38320,
,,,0.002310000000,   1.38240,
,,,0.002312000000,   1.38560,
,,,0.002314000000,   1.38480,
,,,0.002316000000,   1.38400,
,,,0.002318000000,   1.38320,
,,,0.002320000000,   1.38320,
,,,0.002322000000,   1.38560,
,,,0.002324000000,   1.38480,
,,,0.002326000000,   1.38480,
,,,0.002328000000,   1.38320,
,,,0.002330000000,   1.38320,
,,,0.002332000000,   1.38560,
,,,0.002334000000,   1.38560,
,,,0.002336000000,   1.38560,
,,,0.002338000000,   1.38400,
,,,0.002340000000,   1.38560,
,,,0.002342000000,   1.38560,
,,,0.002344000000,   1.38560,
,,,0.002346000000,   1.38560,
,,,0.002348000000,   1.38560,
,,,0.002350000000,   1.38720,
,,,0.002352000000,   1.38560,
,,,0.002354000000,   1.38560,
,,,0.002356000000,   1.38640,
,,,0.002358000000,   1.38560,
,,,0.002360000000,   1.38800,
,,,0.002362000000,   1.38640,
,,,0.002364000000,   1.38480,
,,,0.002366000000,   1.38640,
,,,0.002368000000,   1.38640,
,,,0.002370000000,   1.38960,
,,,0.002372000000,   1.38800,
,,,0.002374000000,   1.38640,
,,,0.002376000000,   1.38720,
,,,0.002378000000,   1.38720,
,,,0.002380000000,   1.39120,
,,,0.002382000000,   1.38880,
,,,0.002384000000,   1.38800,
,,,0.002386000000,   1.38800,
,,,0.002388000000,   1.38960,
,,,0.002390000000,   1.39040,
,,,0.002392000000,   1.38960,
,,,0.002394000000,   1.38800,
,,,0.002396000000,   1.38880,
,,,0.002398000000,   1.38960,
,,,0.002400000000,   1.39120,
,,,0.002402000000,   1.39040,
,,,0.002404000000,   1.39040,
,,,0.002406000000,   1.38880,
,,,0.002408000000,   1.39040,
,,,0.002410000000,   1.39120,
,,,0.002412000000,   1.39120,
,,,0.002414000000,   1.39040,
,,,0.002416000000,   1.38960,
,,,0.002418000000,   1.39120,
,,,0.002420000000,   1.39120,
,,,0.002422000000,   1.39280,
,,,0.002424000000,   1.39040,
,,,0.002426000000,   1.39040,
,,,0.002428000000,   1.39120,
,,,0.002430000000,   1.39120,
,,,0.002432000000,   1.39280,
,,,0.002434000000,   1.39120,
,,,0.002436000000,   1.39200,
,,,0.002438000000,   1.39280,
,,,0.002440000000,   1.39120,
,,,0.002442000000,   1.39520,
,,,0.002444000000,   1.39200,
,,,0.002446000000,   1.39280,
,,,0.002448000000,   1.39280,
,,,0.002450000000,   1.39120,
,,,0.002452000000,   1.39440,
,,,0.002454000000,   1.39200,
,,,0.002456000000,   1.39360,
,,,0.002458000000,   1.39280,
,,,0.002460000000,   1.39120,
,,,0.002462000000,   1.39440,
,,,0.002464000000,   1.39360,
,,,0.002466000000,   1.39360,
,,,0.002468000000,   1.39280,
,,,0.002470000000,   1.39360,
,,,0.002472000000,   1.39360,
,,,0.002474000000,   1.39360,
,,,0.002476000000,   1.39520,
,,,0.002478000000,   1.39360,
,,,0.002480000000,   1.39520,
,,,0.002482000000,   1.39440,
,,,0.002484000000,   1.39440,
,,,0.002486000000,   1.39520,
,,,0.002488000000,   1.39440,
,,,0.002490000000,   1.39600,
,,,0.002492000000,   1.39520,
,,,0.002494000000,   1.39600,
,,,0.002496000000,   1.39600,
,,,0.002498000000,   1.39440,
,,,0.002500000000,   1.39600,
,,,0.002502000000,   1.39520,
,,,0.002504000000,   1.39520,
,,,0.002506000000,   1.39600,
,,,0.002508000000,   1.39600,
,,,0.002510000000,   1.39680,
,,,0.002512000000,   1.39440,
,,,0.002514000000,   1.39680,
,,,0.002516000000,   1.39600,
,,,0.002518000000,   1.39600,
,,,0.002520000000,   1.39680,
,,,0.002522000000,   1.39600,
,,,0.002524000000,   1.39760,
,,,0.002526000000,   1.39760,
,,,0.002528000000,   1.39760,
,,,0.002530000000,   1.39760,
,,,0.002532000000,   1.39600,
,,,0.002534000000,   1.39920,
,,,0.002536000000,   1.39840,
,,,0.002538000000,   1.39840,
,,,0.002540000000,   1.39920,
,,,0.002542000000,   1.39600,
,,,0.002544000000,   1.40000,
,,,0.002546000000,   1.39840,
,,,0.002548000000,   1.39920,
,,,0.002550000000,   1.39840,
,,,0.002552000000,   1.39760,
,,,0.002554000000,   1.40000,
,,,0.002556000000,   1.40000,
,,,0.002558000000,   1.39920,
,,,0.002560000000,   1.39920,
,,,0.002562000000,   1.39920,
,,,0.002564000000,   1.40000,
,,,0.002566000000,   1.40160,
,,,0.002568000000,   1.40000,
,,,0.002570000000,   1.39920,
,,,0.002572000000,   1.40000,
,,,0.002574000000,   1.40080,
,,,0.002576000000,   1.40160,
,,,0.002578000000,   1.40000,
,,,0.002580000000,   1.40000,
,,,0.002582000000,   1.40240,
,,,0.002584000000,   1.40160,
,,,0.002586000000,   1.40240,
,,,0.002588000000,   1.40160,
,,,0.002590000000,   1.40000,
,,,0.002592000000,   1.40240,
,,,0.002594000000,   1.40160,
,,,0.002596000000,   1.40240,
,,,0.002598000000,   1.40160,
,,,0.002600000000,   1.40160,
,,,0.002602000000,   1.40240,
,,,0.002604000000,   1.40160,
,,,0.002606000000,   1.40240,
,,,0.002608000000,   1.40240,
,,,0.002610000000,   1.40080,
,,,0.002612000000,   1.40240,
,,,0.002614000000,   1.40160,
,,,0.002616000000,   1.40240,
,,,0.002618000000,   1.40240,
,,,0.002620000000,   1.40320,
,,,0.002622000000,   1.40320,
,,,0.002624000000,   1.40240,
,,,0.002626000000,   1.40480,
,,,0.002628000000,   1.40240,
,,,0.002630000000,   1.40400,
,,,0.002632000000,   1.40400,
,,,0.002634000000,   1.40320,
,,,0.002636000000,   1.40400,
,,,0.002638000000,   1.40240,
,,,0.002640000000,   1.40400,
,,,0.002642000000,   1.40320,
,,,0.002644000000,   1.40400,
,,,0.002646000000,   1.40480,
,,,0.002648000000,   1.40400,
,,,0.002650000000,   1.40480,
,,,0.002652000000,   1.40400,
,,,0.002654000000,   1.40560,
,,,0.002656000000,   1.40480,
,,,0.002658000000,   1.40480,
,,,0.002660000000,   1.40640,
,,,0.002662000000,   1.40560,
,,,0.002664000000,   1.40720,
,,,0.002666000000,   1.40560,
,,,0.002668000000,   1.40640,
,,,0.002670000000,   1.40720,
,,,0.002672000000,   1.40560,
,,,0.002674000000,   1.40800,
,,,0.002676000000,   1.40640,
,,,0.002678000000,   1.40640,
,,,0.002680000000,   1.40640,
,,,0.002682000000,   1.40640,
,,,0.002684000000,   1.40800,
,,,0.002686000000,   1.40720,
,,,0.002688000000,   1.40800,
,,,0.002690000000,   1.40720,
,,,0.002692000000,   1.40720,
,,,0.002694000000,   1.40800,
,,,0.002696000000,   1.40720,
,,,0.002698000000,   1.40800,
,,,0.002700000000,   1.40640,
,,,0.002702000000,   1.40880,
,,,0.002704000000,   1.40880,
,,,0.002706000000,   1.40800,
,,,0.002708000000,   1.40800,
,,,0.002710000000,   1.40880,
,,,0.002712000000,   1.40880,
,,,0.002714000000,   1.40800,
,,,0.002716000000,   1.40960,
,,,0.002718000000,   1.40880,
,,,0.002720000000,   1.40880,
,,,0.002722000000,   1.41040,
,,,0.002724000000,   1.40800,
,,,0.002726000000,   1.41040,
,,,0.002728000000,   1.40880,
,,,0.002730000000,   1.40960,
,,,0.002732000000,   1.41200,
,,,0.002734000000,   1.40800,
,,,0.002736000000,   1.41200,
,,,0.002738000000,   1.41040,
,,,0.002740000000,   1.41120,
,,,0.002742000000,   1.41120,
,,,0.002744000000,   1.40880,
,,,0.002746000000,   1.41200,
,,,0.002748000000,   1.41040,
,,,0.002750000000,   1.40960,
,,,0.002752000000,   1.41200,
,,,0.002754000000,   1.40880,
,,,0.002756000000,   1.41360,
,,,0.002758000000,   1.40960,
,,,0.002760000000,   1.41040,
,,,0.002762000000,   1.41120,
,,,0.002764000000,   1.40960,
,,,0.002766000000,   1.41280,
,,,0.002768000000,   1.41120,
,,,0.002770000000,   1.41120,
,,,0.002772000000,   1.41120,
,,,0.002774000000,   1.41120,
,,,0.002776000000,   1.41280,
,,,0.002778000000,   1.41040,
,,,0.002780000000,   1.41200,
,,,0.002782000000,   1.41120,
,,,0.002784000000,   1.41200,
,,,0.002786000000,   1.41360,
,,,0.002788000000,   1.41120,
,,,0.002790000000,   1.41200,
,,,0.002792000000,   1.41120,
,,,0.002794000000,   1.41440,
,,,0.002796000000,   1.41360,
,,,0.002798000000,   1.41200,
,,,0.002800000000,   1.41280,
,,,0.002802000000,   1.41200,
,,,0.002804000000,   1.41520,
,,,0.002806000000,   1.41280,
