controle/SCT_bloco2ord/ALL0004/F0004CH1.CSV

Record Length,2.500000e+03,,   0.016000000000,   1.41280,
Sample Interval,4.000000e-05,,   0.016040000000,   1.41280,
Trigger Point,-4.000000000000e+02,,   0.016080000000,   1.41280,
,,,   0.016120000000,   1.41280,
,,,   0.016160000000,   1.41280,
,,,   0.016200000000,   1.41280,
Source,CH1,,   0.016240000000,   1.41280,
Vertical Units,V,,   0.016280000000,   1.41280,
Vertical Scale,2.000000e-02,,   0.016320000000,   1.41280,
Vertical Offset,-1.513600e+00,,   0.016360000000,   1.41280,
Horizontal Units,s,,   0.016400000000,   1.41280,
Horizontal Scale,1.000000e-02,,   0.016440000000,   1.41280,
Pt Fmt,Y,,   0.016480000000,   1.41280,
Yzero,0.000000e+00,,   0.016520000000,   1.41280,
Probe Atten,1.000000e+01,,   0.016560000000,   1.41280,
Model Number,TDS1012C-EDU,,   0.016600000000,   1.41280,
Serial Number,C013516,,   0.016640000000,   1.41280,
Firmware Version,FV:v25.07,,   0.016680000000,   1.41280,
,,,0.016720000000,   1.41280,
,,,0.016760000000,   1.41280,
,,,0.016800000000,   1.41280,
,,,0.016840000000,   1.41280,
,,,0.016880000000,   1.41280,
,,,0.016920000000,   1.41280,
,,,0.016960000000,   1.41280,
,,,0.017000000000,   1.41280,
,,,0.017040000000,   1.41280,
,,,0.017080000000,   1.41280,
,,,0.017120000000,   1.41280,
,,,0.017160000000,   1.41280,
,,,0.017200000000,   1.41280,
,,,0.017240000000,   1.41280,
,,,0.017280000000,   1.41280,
,,,0.017320000000,   1.41280,
,,,0.017360000000,   1.41280,
,,,0.017400000000,   1.41280,
,,,0.017440000000,   1.41280,
,,,0.017480000000,   1.41280,
,,,0.017520000000,   1.41280,
,,,0.017560000000,   1.41280,
,,,0.017600000000,   1.41280,
,,,0.017640000000,   1.41280,
,,,0.017680000000,   1.41280,
,,,0.017720000000,   1.41280,
,,,0.017760000000,   1.41280,
,,,0.017800000000,   1.41280,
,,,0.017840000000,   1.41280,
,,,0.017880000000,   1.41280,
,,,0.017920000000,   1.41280,
,,,0.017960000000,   1.41280,
,,,0.018000000000,   1.41280,
,,,0.018040000000,   1.41280,
,,,0.018080000000,   1.41280,
,,,0.018120000000,   1.41280,
,,,0.018160000000,   1.41280,
,,,0.018200000000,   1.41280,
,,,0.018240000000,   1.41280,
,,,0.018280000000,   1.41280,
,,,0.018320000000,   1.41280,
,,,0.018360000000,   1.41280,
,,,0.018400000000,   1.41280,
,,,0.018440000000,   1.41280,
,,,0.018480000000,   1.41280,
,,,0.018520000000,   1.41280,
,,,0.018560000000,   1.41360,
,,,0.018600000000,   1.41360,
,,,0.018640000000,   1.41440,
,,,0.018680000000,   1.41440,
,,,0.018720000000,   1.41520,
,,,0.018760000000,   1.41520,
,,,0.018800000000,   1.41600,
,,,0.018840000000,   1.41680,
,,,0.018880000000,   1.41760,
,,,0.018920000000,   1.41840,
,,,0.018960000000,   1.41760,
,,,0.019000000000,   1.41840,
,,,0.019040000000,   1.42000,
,,,0.019080000000,   1.42160,
,,,0.019120000000,   1.42160,
,,,0.019160000000,   1.42080,
,,,0.019200000000,   1.42240,
,,,0.019240000000,   1.42240,
,,,0.019280000000,   1.42480,
,,,0.019320000000,   1.42560,
,,,0.019360000000,   1.42560,
,,,0.019400000000,   1.42640,
,,,0.019440000000,   1.42880,
,,,0.019480000000,   1.42880,
,,,0.019520000000,   1.42960,
,,,0.019560000000,   1.43040,
,,,0.019600000000,   1.43120,
,,,0.019640000000,   1.43280,
,,,0.019680000000,   1.43360,
,,,0.019720000000,   1.43440,
,,,0.019760000000,   1.43440,
,,,0.019800000000,   1.43520,
,,,0.019840000000,   1.43600,
,,,0.019880000000,   1.43680,
,,,0.019920000000,   1.43760,
,,,0.019960000000,   1.43840,
,,,0.020000000000,   1.43920,
,,,0.020040000000,   1.44000,
,,,0.020080000000,   1.44240,
,,,0.020120000000,   1.44240,
,,,0.020160000000,   1.44240,
,,,0.020200000000,   1.44320,
,,,0.020240000000,   1.44400,
,,,0.020280000000,   1.44560,
,,,0.020320000000,   1.44640,
,,,0.020360000000,   1.44800,
,,,0.020400000000,   1.44800,
,,,0.020440000000,   1.44880,
,,,0.020480000000,   1.44960,
,,,0.020520000000,   1.45040,
,,,0.020560000000,   1.45120,
,,,0.020600000000,   1.45120,
,,,0.020640000000,   1.45200,
,,,0.020680000000,   1.45360,
,,,0.020720000000,   1.45520,
,,,0.020760000000,   1.45520,
,,,0.020800000000,   1.45520,
,,,0.020840000000,   1.45520,
,,,0.020880000000,   1.45680,
,,,0.020920000000,   1.45840,
,,,0.020960000000,   1.45920,
,,,0.021000000000,   1.45920,
,,,0.021040000000,   1.46160,
,,,0.021080000000,   1.46160,
,,,0.021120000000,   1.46160,
,,,0.021160000000,   1.46240,
,,,0.021200000000,   1.46240,
,,,0.021240000000,   1.46240,
,,,0.021280000000,   1.46560,
,,,0.021320000000,   1.46640,
,,,0.021360000000,   1.46640,
,,,0.021400000000,   1.46640,
,,,0.021440000000,   1.46800,
,,,0.021480000000,   1.46880,
,,,0.021520000000,   1.46960,
,,,0.021560000000,   1.47040,
,,,0.021600000000,   1.47040,
,,,0.021640000000,   1.47120,
,,,0.021680000000,   1.47280,
,,,0.021720000000,   1.47520,
,,,0.021760000000,   1.47440,
,,,0.021800000000,   1.47440,
,,,0.021840000000,   1.47440,
,,,0.021880000000,   1.47520,
,,,0.021920000000,   1.47680,
,,,0.021960000000,   1.47680,
,,,0.022000000000,   1.47760,
,,,0.022040000000,   1.47840,
,,,0.022080000000,   1.47920,
,,,0.022120000000,   1.48080,
,,,0.022160000000,   1.48000,
,,,0.022200000000,   1.48080,
,,,0.022240000000,   1.48160,
,,,0.022280000000,   1.48320,
,,,0.022320000000,   1.48400,
,,,0.022360000000,   1.48480,
,,,0.022400000000,   1.48400,
,,,0.022440000000,   1.48560,
,,,0.022480000000,   1.48560,
,,,0.022520000000,   1.48720,
,,,0.022560000000,   1.48800,
,,,0.022600000000,   1.48720,
,,,0.022640000000,   1.48880,
,,,0.022680000000,   1.49040,
,,,0.022720000000,   1.49040,
,,,0.022760000000,   1.49120,
,,,0.022800000000,   1.49200,
,,,0.022840000000,   1.49120,
,,,0.022880000000,   1.49280,
,,,0.022920000000,   1.49440,
,,,0.022960000000,   1.49440,
,,,0.023000000000,   1.49440,
,,,0.023040000000,   1.49520,
,,,0.023080000000,   1.49520,
,,,0.023120000000,   1.49680,
,,,0.023160000000,   1.49680,
,,,0.023200000000,   1.49840,
,,,0.023240000000,   1.49760,
,,,0.023280000000,   1.49920,
,,,0.023320000000,   1.50000,
,,,0.023360000000,   1.50000,
,,,0.023400000000,   1.50000,
,,,0.023440000000,   1.50080,
,,,0.023480000000,   1.50240,
,,,0.023520000000,   1.50320,
,,,0.023560000000,   1.50320,
,,,0.023600000000,   1.50400,
,,,0.023640000000,   1.50240,
,,,0.023680000000,   1.50560,
,,,0.023720000000,   1.50640,
,,,0.023760000000,   1.50640,
,,,0.023800000000,   1.50640,
,,,0.023840000000,   1.50560,
,,,0.023880000000,   1.50800,
,,,0.023920000000,   1.50880,
,,,0.023960000000,   1.50800,
,,,0.024000000000,   1.50960,
,,,0.024040000000,   1.50960,
,,,0.024080000000,   1.51040,
,,,0.024120000000,   1.51200,
,,,0.024160000000,   1.51120,
,,,0.024200000000,   1.51200,
,,,0.024240000000,   1.51040,
,,,0.024280000000,   1.51360,
,,,0.024320000000,   1.51360,
,,,0.024360000000,   1.51440,
,,,0.024400000000,   1.51520,
,,,0.024440000000,   1.51440,
,,,0.024480000000,   1.51600,
,,,0.024520000000,   1.51600,
,,,0.024560000000,   1.51680,
,,,0.024600000000,   1.51760,
,,,0.024640000000,   1.51680,
,,,0.024680000000,   1.51840,
,,,0.024720000000,   1.51920,
,,,0.024760000000,   1.51920,
,,,0.024800000000,   1.52000,
,,,0.024840000000,   1.51840,
,,,0.024880000000,   1.52000,
,,,0.024920000000,   1.52160,
,,,0.024960000000,   1.52160,
,,,0.025000000000,   1.52240,
,,,0.025040000000,   1.52240,
,,,0.025080000000,   1.52320,
,,,0.025120000000,   1.52320,
,,,0.025160000000,   1.52400,
,,,0.025200000000,   1.52480,
,,,0.025240000000,   1.52400,
,,,0.025280000000,   1.52560,
,,,0.025320000000,   1.52720,
,,,0.025360000000,   1.52560,
,,,0.025400000000,   1.52640,
,,,0.025440000000,   1.52640,
,,,0.025480000000,   1.52880,
,,,0.025520000000,   1.52880,
,,,0.025560000000,   1.52800,
,,,0.025600000000,   1.52880,
,,,0.025640000000,   1.52800,
,,,0.025680000000,   1.52960,
,,,0.025720000000,   1.52960,
,,,0.025760000000,   1.53040,
,,,0.025800000000,   1.53120,
,,,0.025840000000,   1.53120,
,,,0.025880000000,   1.53280,
,,,0.025920000000,   1.53440,
,,,0.025960000000,   1.53280,
,,,0.026000000000,   1.53360,
,,,0.026040000000,   1.53280,
,,,0.026080000000,   1.53520,
,,,0.026120000000,   1.53440,
,,,0.026160000000,   1.53520,
,,,0.026200000000,   1.53440,
,,,0.026240000000,   1.53440,
,,,0.026280000000,   1.53600,
,,,0.026320000000,   1.53680,
,,,0.026360000000,   1.53760,
,,,0.026400000000,   1.53680,
,,,0.026440000000,   1.53760,
,,,0.026480000000,   1.53840,
,,,0.026520000000,   1.53840,
,,,0.026560000000,   1.53840,
,,,0.026600000000,   1.54000,
,,,0.026640000000,   1.53920,
,,,0.026680000000,   1.54000,
,,,0.026720000000,   1.54160,
,,,0.026760000000,   1.54080,
,,,0.026800000000,   1.54080,
,,,0.026840000000,   1.54000,
,,,0.026880000000,   1.54240,
,,,0.026920000000,   1.54240,
,,,0.026960000000,   1.54320,
,,,0.027000000000,   1.54240,
,,,0.027040000000,   1.54320,
,,,0.027080000000,   1.54400,
,,,0.027120000000,   1.54480,
,,,0.027160000000,   1.54400,
,,,0.027200000000,   1.54400,
,,,0.027240000000,   1.54400,
,,,0.027280000000,   1.54560,
,,,0.027320000000,   1.54560,
,,,0.027360000000,   1.54640,
,,,0.027400000000,   1.54720,
,,,0.027440000000,   1.54480,
,,,0.027480000000,   1.54640,
,,,0.027520000000,   1.54720,
,,,0.027560000000,   1.54720,
,,,0.027600000000,   1.54720,
,,,0.027640000000,   1.54720,
,,,0.027680000000,   1.54800,
,,,0.027720000000,   1.54800,
,,,0.027760000000,   1.54880,
,,,0.027800000000,   1.54960,
,,,0.027840000000,   1.54960,
,,,0.027880000000,   1.55040,
,,,0.027920000000,   1.55040,
,,,0.027960000000,   1.55120,
,,,0.028000000000,   1.55200,
,,,0.028040000000,   1.54960,
,,,0.028080000000,   1.55200,
,,,0.028120000000,   1.55200,
,,,0.028160000000,   1.55200,
,,,0.028200000000,   1.55200,
,,,0.028240000000,   1.55120,
,,,0.028280000000,   1.55280,
,,,0.028320000000,   1.55360,
,,,0.028360000000,   1.55360,
,,,0.028400000000,   1.55440,
,,,0.028440000000,   1.55280,
,,,0.028480000000,   1.55360,
,,,0.028520000000,   1.55440,
,,,0.028560000000,   1.55440,
,,,0.028600000000,   1.55520,
,,,0.028640000000,   1.55440,
,,,0.028680000000,   1.55440,
,,,0.028720000000,   1.55600,
,,,0.028760000000,   1.55600,
,,,0.028800000000,   1.55600,
,,,0.028840000000,   1.55600,
,,,0.028880000000,   1.55520,
,,,0.028920000000,   1.55760,
,,,0.028960000000,   1.55760,
,,,0.029000000000,   1.55760,
,,,0.029040000000,   1.55600,
,,,0.029080000000,   1.55760,
,,,0.029120000000,   1.55840,
,,,0.029160000000,   1.55760,
,,,0.029200000000,   1.55920,
,,,0.029240000000,   1.55760,
,,,0.029280000000,   1.55840,
,,,0.029320000000,   1.55840,
,,,0.029360000000,   1.55840,
,,,0.029400000000,   1.55920,
,,,0.029440000000,   1.55840,
,,,0.029480000000,   1.56000,
,,,0.029520000000,   1.56000,
,,,0.029560000000,   1.56000,
,,,0.029600000000,   1.56000,
,,,0.029640000000,   1.56000,
,,,0.029680000000,   1.56080,
,,,0.029720000000,   1.56080,
,,,0.029760000000,   1.56080,
,,,0.029800000000,   1.56080,
,,,0.029840000000,   1.56000,
,,,0.029880000000,   1.56160,
,,,0.029920000000,   1.56160,
,,,0.029960000000,   1.56240,
,,,0.030000000000,   1.56320,
,,,0.030040000000,   1.56080,
,,,0.030080000000,   1.56160,
,,,0.030120000000,   1.56320,
,,,0.030160000000,   1.56240,
,,,0.030200000000,   1.56320,
,,,0.030240000000,   1.56240,
,,,0.030280000000,   1.56240,
,,,0.030320000000,   1.56400,
,,,0.030360000000,   1.56320,
,,,0.030400000000,   1.56400,
,,,0.030440000000,   1.56320,
,,,0.030480000000,   1.56240,
,,,0.030520000000,   1.56400,
,,,0.030560000000,   1.56400,
,,,0.030600000000,   1.56480,
,,,0.030640000000,   1.56320,
,,,0.030680000000,   1.56400,
,,,0.030720000000,   1.56480,
,,,0.030760000000,   1.56480,
,,,0.030800000000,   1.56560,
,,,0.030840000000,   1.56480,
,,,0.030880000000,   1.56560,
,,,0.030920000000,   1.56640,
,,,0.030960000000,   1.56480,
,,,0.031000000000,   1.56560,
,,,0.031040000000,   1.56480,
,,,0.031080000000,   1.56560,
,,,0.031120000000,   1.56560,
,,,0.031160000000,   1.56560,
,,,0.031200000000,   1.56640,
,,,0.031240000000,   1.56480,
,,,0.031280000000,   1.56560,
,,,0.031320000000,   1.56640,
,,,0.031360000000,   1.56720,
,,,0.031400000000,   1.56640,
,,,0.031440000000,   1.56560,
,,,0.031480000000,   1.56640,
,,,0.031520000000,   1.56640,
,,,0.031560000000,   1.56640,
,,,0.031600000000,   1.56720,
,,,0.031640000000,   1.56640,
,,,0.031680000000,   1.56720,
,,,0.031720000000,   1.56720,
,,,0.031760000000,   1.56720,
,,,0.031800000000,   1.56720,
,,,0.031840000000,   1.56720,
,,,0.031880000000,   1.56800,
,,,0.031920000000,   1.56720,
,,,0.031960000000,   1.56720,
,,,0.032000000000,   1.56800,
,,,0.032040000000,   1.56720,
,,,0.032080000000,   1.56720,
,,,0.032120000000,   1.56720,
,,,0.032160000000,   1.56800,
,,,0.032200000000,   1.56800,
,,,0.032240000000,   1.56720,
,,,0.032280000000,   1.56720,
,,,0.032320000000,   1.56800,
,,,0.032360000000,   1.56800,
,,,0.032400000000,   1.56880,
,,,0.032440000000,   1.56640,
,,,0.032480000000,   1.56800,
,,,0.032520000000,   1.56880,
,,,0.032560000000,   1.56800,
,,,0.032600000000,   1.56880,
,,,0.032640000000,   1.56720,
,,,0.032680000000,   1.56880,
,,,0.032720000000,   1.56800,
,,,0.032760000000,   1.56880,
,,,0.032800000000,   1.56880,
,,,0.032840000000,   1.56800,
,,,0.032880000000,   1.56800,
,,,0.032920000000,   1.56960,
,,,0.032960000000,   1.56880,
,,,0.033000000000,   1.56880,
,,,0.033040000000,   1.56800,
,,,0.033080000000,   1.56880,
,,,0.033120000000,   1.56880,
,,,0.033160000000,   1.56880,
,,,0.033200000000,   1.56800,
,,,0.033240000000,   1.56800,
,,,0.033280000000,   1.56800,
,,,0.033320000000,   1.56880,
,,,0.033360000000,   1.56960,
,,,0.033400000000,   1.56880,
,,,0.033440000000,   1.56800,
,,,0.033480000000,   1.56800,
,,,0.033520000000,   1.56960,
,,,0.033560000000,   1.56880,
,,,0.033600000000,   1.56880,
,,,0.033640000000,   1.56720,
,,,0.033680000000,   1.56880,
,,,0.033720000000,   1.56880,
,,,0.033760000000,   1.56880,
,,,0.033800000000,   1.56880,
,,,0.033840000000,   1.56880,
,,,0.033880000000,   1.56880,
,,,0.033920000000,   1.56800,
,,,0.033960000000,   1.56800,
,,,0.034000000000,   1.56800,
,,,0.034040000000,   1.56800,
,,,0.034080000000,   1.56800,
,,,0.034120000000,   1.56800,
,,,0.034160000000,   1.56880,
,,,0.034200000000,   1.56800,
,,,0.034240000000,   1.56800,
,,,0.034280000000,   1.56800,
,,,0.034320000000,   1.56800,
,,,0.034360000000,   1.56880,
,,,0.034400000000,   1.56880,
,,,0.034440000000,   1.56800,
,,,0.034480000000,   1.56720,
,,,0.034520000000,   1.56880,
,,,0.034560000000,   1.56800,
,,,0.034600000000,   1.56720,
,,,0.034640000000,   1.56720,
,,,0.034680000000,   1.56880,
,,,0.034720000000,   1.56800,
,,,0.034760000000,   1.56720,
,,,0.034800000000,   1.56720,
,,,0.034840000000,   1.56640,
,,,0.034880000000,   1.56720,
,,,0.034920000000,   1.56800,
,,,0.034960000000,   1.56800,
,,,0.035000000000,   1.56640,
,,,0.035040000000,   1.56720,
,,,0.035080000000,   1.56720,
,,,0.035120000000,   1.56720,
,,,0.035160000000,   1.56800,
,,,0.035200000000,   1.56720,
,,,0.035240000000,   1.56640,
,,,0.035280000000,   1.56720,
,,,0.035320000000,   1.56720,
,,,0.035360000000,   1.56560,
,,,0.035400000000,   1.56720,
,,,0.035440000000,   1.56640,
,,,0.035480000000,   1.56720,
,,,0.035520000000,   1.56560,
,,,0.035560000000,   1.56720,
,,,0.035600000000,   1.56640,
,,,0.035640000000,   1.56640,
,,,0.035680000000,   1.56640,
,,,0.035720000000,   1.56640,
,,,0.035760000000,   1.56560,
,,,0.035800000000,   1.56560,
,,,0.035840000000,   1.56640,
,,,0.035880000000,   1.56560,
,,,0.035920000000,   1.56800,
,,,0.035960000000,   1.56560,
,,,0.036000000000,   1.56560,
,,,0.036040000000,   1.56560,
,,,0.036080000000,   1.56560,
,,,0.036120000000,   1.56560,
,,,0.036160000000,   1.56640,
,,,0.036200000000,   1.56560,
,,,0.036240000000,   1.56480,
,,,0.036280000000,   1.56480,
,,,0.036320000000,   1.56560,
,,,0.036360000000,   1.56560,
,,,0.036400000000,   1.56560,
,,,0.036440000000,   1.56560,
,,,0.036480000000,   1.56480,
,,,0.036520000000,   1.56560,
,,,0.036560000000,   1.56480,
,,,0.036600000000,   1.56400,
,,,0.036640000000,   1.56400,
,,,0.036680000000,   1.56320,
,,,0.036720000000,   1.56560,
,,,0.036760000000,   1.56400,
,,,0.036800000000,   1.56400,
,,,0.036840000000,   1.56320,
,,,0.036880000000,   1.56240,
,,,0.036920000000,   1.56400,
,,,0.036960000000,   1.56400,
,,,0.037000000000,   1.56320,
,,,0.037040000000,   1.56320,
,,,0.037080000000,   1.56320,
,,,0.037120000000,   1.56400,
,,,0.037160000000,   1.56320,
,,,0.037200000000,   1.56320,
,,,0.037240000000,   1.56160,
,,,0.037280000000,   1.56240,
,,,0.037320000000,   1.56320,
,,,0.037360000000,   1.56240,
,,,0.037400000000,   1.56160,
,,,0.037440000000,   1.56160,
,,,0.037480000000,   1.56240,
,,,0.037520000000,   1.56240,
,,,0.037560000000,   1.56160,
,,,0.037600000000,   1.56160,
,,,0.037640000000,   1.56080,
,,,0.037680000000,   1.56160,
,,,0.037720000000,   1.56080,
,,,0.037760000000,   1.56080,
,,,0.037800000000,   1.56000,
,,,0.037840000000,   1.56080,
,,,0.037880000000,   1.56000,
,,,0.037920000000,   1.56160,
,,,0.037960000000,   1.56080,
,,,0.038000000000,   1.56000,
,,,0.038040000000,   1.56080,
,,,0.038080000000,   1.56000,
,,,0.038120000000,   1.56080,
,,,0.038160000000,   1.56000,
,,,0.038200000000,   1.55840,
,,,0.038240000000,   1.55920,
,,,0.038280000000,   1.55840,
,,,0.038320000000,   1.55920,
,,,0.038360000000,   1.55920,
,,,0.038400000000,   1.55840,
,,,0.038440000000,   1.55840,
,,,0.038480000000,   1.55840,
,,,0.038520000000,   1.55920,
,,,0.038560000000,   1.55840,
,,,0.038600000000,   1.55840,
,,,0.038640000000,   1.55760,
,,,0.038680000000,   1.55600,
,,,0.038720000000,   1.55680,
,,,0.038760000000,   1.55840,
,,,0.038800000000,   1.55600,
,,,0.038840000000,   1.55760,
,,,0.038880000000,   1.55600,
,,,0.038920000000,   1.55760,
,,,0.038960000000,   1.55600,
,,,0.039000000000,   1.55600,
,,,0.039040000000,   1.55600,
,,,0.039080000000,   1.55600,
,,,0.039120000000,   1.55680,
,,,0.039160000000,   1.55520,
,,,0.039200000000,   1.55440,
,,,0.039240000000,   1.55600,
,,,0.039280000000,   1.55440,
,,,0.039320000000,   1.55520,
,,,0.039360000000,   1.55520,
,,,0.039400000000,   1.55360,
,,,0.039440000000,   1.55520,
,,,0.039480000000,   1.55440,
,,,0.039520000000,   1.55440,
,,,0.039560000000,   1.55360,
,,,0.039600000000,   1.55280,
,,,0.039640000000,   1.55360,
,,,0.039680000000,   1.55280,
,,,0.039720000000,   1.55360,
,,,0.039760000000,   1.55360,
,,,0.039800000000,   1.55280,
,,,0.039840000000,   1.55360,
,,,0.039880000000,   1.55280,
,,,0.039920000000,   1.55360,
,,,0.039960000000,   1.55280,
,,,0.040000000000,   1.55120,
,,,0.040040000000,   1.55200,
,,,0.040080000000,   1.55200,
,,,0.040120000000,   1.55120,
,,,0.040160000000,   1.55120,
,,,0.040200000000,   1.54960,
,,,0.040240000000,   1.55120,
,,,0.040280000000,   1.55040,
,,,0.040320000000,   1.55120,
,,,0.040360000000,   1.55040,
,,,0.040400000000,   1.54960,
,,,0.040440000000,   1.54960,
,,,0.040480000000,   1.54880,
,,,0.040520000000,   1.55120,
,,,0.040560000000,   1.54960,
,,,0.040600000000,   1.54960,
,,,0.040640000000,   1.54880,
,,,0.040680000000,   1.54880,
,,,0.040720000000,   1.54880,
,,,0.040760000000,   1.54960,
,,,0.040800000000,   1.54800,
,,,0.040840000000,   1.54880,
,,,0.040880000000,   1.54800,
,,,0.040920000000,   1.54800,
,,,0.040960000000,   1.54800,
,,,0.041000000000,   1.54640,
,,,0.041040000000,   1.54800,
,,,0.041080000000,   1.54640,
,,,0.041120000000,   1.54720,
,,,0.041160000000,   1.54720,
,,,0.041200000000,   1.54640,
,,,0.041240000000,   1.54720,
,,,0.041280000000,   1.54560,
,,,0.041320000000,   1.54640,
,,,0.041360000000,   1.54720,
,,,0.041400000000,   1.54480,
,,,0.041440000000,   1.54640,
,,,0.041480000000,   1.54560,
,,,0.041520000000,   1.54640,
,,,0.041560000000,   1.54560,
,,,0.041600000000,   1.54400,
,,,0.041640000000,   1.54560,
,,,0.041680000000,   1.54400,
,,,0.041720000000,   1.54480,
,,,0.041760000000,   1.54480,
,,,0.041800000000,   1.54400,
,,,0.041840000000,   1.54480,
,,,0.041880000000,   1.54320,
,,,0.041920000000,   1.54320,
,,,0.041960000000,   1.54320,
,,,0.042000000000,   1.54240,
,,,0.042040000000,   1.54320,
,,,0.042080000000,   1.54160,
,,,0.042120000000,   1.54320,
