controle/SCT_controlado/ALL0003/F0003CH1.CSV

Record Length,2.500000e+03,,   0.008700000000,   1.39680,
Sample Interval,1.000000e-05,,   0.008710000000,   1.39680,
Trigger Point,-8.700000000000e+02,,   0.008720000000,   1.39680,
,,,   0.008730000000,   1.39680,
,,,   0.008740000000,   1.39680,
,,,   0.008750000000,   1.39680,
Source,CH1,,   0.008760000000,   1.39680,
Vertical Units,V,,   0.008770000000,   1.39680,
Vertical Scale,2.000000e-02,,   0.008780000000,   1.39680,
Vertical Offset,-1.497600e+00,,   0.008790000000,   1.39680,
Horizontal Units,s,,   0.008800000000,   1.39680,
Horizontal Scale,2.500000e-03,,   0.008810000000,   1.39680,
Pt Fmt,Y,,   0.008820000000,   1.39680,
Yzero,0.000000e+00,,   0.008830000000,   1.39680,
Probe Atten,1.000000e+01,,   0.008840000000,   1.39680,
Model Number,TDS1012C-EDU,,   0.008850000000,   1.39680,
Serial Number,C013516,,   0.008860000000,   1.39680,
Firmware Version,FV:v25.07,,   0.008870000000,   1.39680,
,,,0.008880000000,   1.39680,
,,,0.008890000000,   1.39680,
,,,0.008900000000,   1.39680,
,,,0.008910000000,   1.39680,
,,,0.008920000000,   1.39680,
,,,0.008930000000,   1.39680,
,,,0.008940000000,   1.39680,
,,,0.008950000000,   1.39680,
,,,0.008960000000,   1.39680,
,,,0.008970000000,   1.39680,
,,,0.008980000000,   1.39680,
,,,0.008990000000,   1.39680,
,,,0.009000000000,   1.39680,
,,,0.009010000000,   1.39680,
,,,0.009020000000,   1.39680,
,,,0.009030000000,   1.39680,
,,,0.009040000000,   1.39680,
,,,0.009050000000,   1.39680,
,,,0.009060000000,   1.39680,
,,,0.009070000000,   1.39680,
,,,0.009080000000,   1.39680,
,,,0.009090000000,   1.39680,
,,,0.009100000000,   1.39680,
,,,0.009110000000,   1.39680,
,,,0.009120000000,   1.39680,
,,,0.009130000000,   1.39680,
,,,0.009140000000,   1.39680,
,,,0.009150000000,   1.39680,
,,,0.009160000000,   1.39680,
,,,0.009170000000,   1.39680,
,,,0.009180000000,   1.39680,
,,,0.009190000000,   1.39680,
,,,0.009200000000,   1.39680,
,,,0.009210000000,   1.39680,
,,,0.009220000000,   1.39680,
,,,0.009230000000,   1.39680,
,,,0.009240000000,   1.39680,
,,,0.009250000000,   1.39680,
,,,0.009260000000,   1.39680,
,,,0.009270000000,   1.39680,
,,,0.009280000000,   1.39680,
,,,0.009290000000,   1.39680,
,,,0.009300000000,   1.39680,
,,,0.009310000000,   1.39680,
,,,0.009320000000,   1.39680,
,,,0.009330000000,   1.39680,
,,,0.009340000000,   1.39680,
,,,0.009350000000,   1.39680,
,,,0.009360000000,   1.39680,
,,,0.009370000000,   1.39680,
,,,0.009380000000,   1.39680,
,,,0.009390000000,   1.39680,
,,,0.009400000000,   1.39680,
,,,0.009410000000,   1.39680,
,,,0.009420000000,   1.39680,
,,,0.009430000000,   1.39680,
,,,0.009440000000,   1.39680,
,,,0.009450000000,   1.39680,
,,,0.009460000000,   1.39680,
,,,0.009470000000,   1.39680,
,,,0.009480000000,   1.39680,
,,,0.009490000000,   1.39680,
,,,0.009500000000,   1.39680,
,,,0.009510000000,   1.39680,
,,,0.009520000000,   1.39680,
,,,0.009530000000,   1.39680,
,,,0.009540000000,   1.39680,
,,,0.009550000000,   1.39680,
,,,0.009560000000,   1.39680,
,,,0.009570000000,   1.39680,
,,,0.009580000000,   1.39680,
,,,0.009590000000,   1.39680,
,,,0.009600000000,   1.39680,
,,,0.009610000000,   1.39680,
,,,0.009620000000,   1.39680,
,,,0.009630000000,   1.39680,
,,,0.009640000000,   1.39680,
,,,0.009650000000,   1.39680,
,,,0.009660000000,   1.39680,
,,,0.009670000000,   1.39680,
,,,0.009680000000,   1.39680,
,,,0.009690000000,   1.39680,
,,,0.009700000000,   1.39680,
,,,0.009710000000,   1.39680,
,,,0.009720000000,   1.39680,
,,,0.009730000000,   1.39680,
,,,0.009740000000,   1.39680,
,,,0.009750000000,   1.39680,
,,,0.009760000000,   1.39680,
,,,0.009770000000,   1.39680,
,,,0.009780000000,   1.39680,
,,,0.009790000000,   1.39680,
,,,0.009800000000,   1.39680,
,,,0.009810000000,   1.39680,
,,,0.009820000000,   1.39680,
,,,0.009830000000,   1.39680,
,,,0.009840000000,   1.39680,
,,,0.009850000000,   1.39680,
,,,0.009860000000,   1.39680,
,,,0.009870000000,   1.39680,
,,,0.009880000000,   1.39680,
,,,0.009890000000,   1.39680,
,,,0.009900000000,   1.39680,
,,,0.009910000000,   1.39680,
,,,0.009920000000,   1.39680,
,,,0.009930000000,   1.39680,
,,,0.009940000000,   1.39680,
,,,0.009950000000,   1.39680,
,,,0.009960000000,   1.39680,
,,,0.009970000000,   1.39680,
,,,0.009980000000,   1.39680,
,,,0.009990000000,   1.39680,
,,,0.010000000000,   1.39680,
,,,0.010010000000,   1.39680,
,,,0.010020000000,   1.39680,
,,,0.010030000000,   1.39680,
,,,0.010040000000,   1.39680,
,,,0.010050000000,   1.39680,
,,,0.010060000000,   1.39680,
,,,0.010070000000,   1.39680,
,,,0.010080000000,   1.39680,
,,,0.010090000000,   1.39680,
,,,0.010100000000,   1.39680,
,,,0.010110000000,   1.39680,
,,,0.010120000000,   1.39680,
,,,0.010130000000,   1.39680,
,,,0.010140000000,   1.39680,
,,,0.010150000000,   1.39680,
,,,0.010160000000,   1.39680,
,,,0.010170000000,   1.39680,
,,,0.010180000000,   1.39680,
,,,0.010190000000,   1.39680,
,,,0.010200000000,   1.39680,
,,,0.010210000000,   1.39680,
,,,0.010220000000,   1.39680,
,,,0.010230000000,   1.39680,
,,,0.010240000000,   1.39680,
,,,0.010250000000,   1.39680,
,,,0.010260000000,   1.39680,
,,,0.010270000000,   1.39680,
,,,0.010280000000,   1.39680,
,,,0.010290000000,   1.39680,
,,,0.010300000000,   1.39680,
,,,0.010310000000,   1.39680,
,,,0.010320000000,   1.39680,
,,,0.010330000000,   1.39680,
,,,0.010340000000,   1.39680,
,,,0.010350000000,   1.39680,
,,,0.010360000000,   1.39680,
,,,0.010370000000,   1.39680,
,,,0.010380000000,   1.39680,
,,,0.010390000000,   1.39680,
,,,0.010400000000,   1.39680,
,,,0.010410000000,   1.39680,
,,,0.010420000000,   1.39680,
,,,0.010430000000,   1.39680,
,,,0.010440000000,   1.39680,
,,,0.010450000000,   1.39680,
,,,0.010460000000,   1.39680,
,,,0.010470000000,   1.39680,
,,,0.010480000000,   1.39680,
,,,0.010490000000,   1.39680,
,,,0.010500000000,   1.39680,
,,,0.010510000000,   1.39680,
,,,0.010520000000,   1.39680,
,,,0.010530000000,   1.39680,
,,,0.010540000000,   1.39680,
,,,0.010550000000,   1.39680,
,,,0.010560000000,   1.39680,
,,,0.010570000000,   1.39680,
,,,0.010580000000,   1.39680,
,,,0.010590000000,   1.39680,
,,,0.010600000000,   1.39680,
,,,0.010610000000,   1.39680,
,,,0.010620000000,   1.39680,
,,,0.010630000000,   1.39680,
,,,0.010640000000,   1.39680,
,,,0.010650000000,   1.39680,
,,,0.010660000000,   1.39680,
,,,0.010670000000,   1.39680,
,,,0.010680000000,   1.39680,
,,,0.010690000000,   1.39680,
,,,0.010700000000,   1.39680,
,,,0.010710000000,   1.39680,
,,,0.010720000000,   1.39680,
,,,0.010730000000,   1.39680,
,,,0.010740000000,   1.39680,
,,,0.010750000000,   1.39680,
,,,0.010760000000,   1.39680,
,,,0.010770000000,   1.39680,
,,,0.010780000000,   1.39680,
,,,0.010790000000,   1.39680,
,,,0.010800000000,   1.39680,
,,,0.010810000000,   1.39680,
,,,0.010820000000,   1.39680,
,,,0.010830000000,   1.39680,
,,,0.010840000000,   1.39680,
,,,0.010850000000,   1.39680,
,,,0.010860000000,   1.39680,
,,,0.010870000000,   1.39680,
,,,0.010880000000,   1.39680,
,,,0.010890000000,   1.39680,
,,,0.010900000000,   1.39680,
,,,0.010910000000,   1.39680,
,,,0.010920000000,   1.39680,
,,,0.010930000000,   1.39680,
,,,0.010940000000,   1.39680,
,,,0.010950000000,   1.39680,
,,,0.010960000000,   1.39680,
,,,0.010970000000,   1.39680,
,,,0.010980000000,   1.39680,
,,,0.010990000000,   1.39680,
,,,0.011000000000,   1.39680,
,,,0.011010000000,   1.39680,
,,,0.011020000000,   1.39680,
,,,0.011030000000,   1.39680,
,,,0.011040000000,   1.39680,
,,,0.011050000000,   1.39680,
,,,0.011060000000,   1.39680,
,,,0.011070000000,   1.39680,
,,,0.011080000000,   1.39680,
,,,0.011090000000,   1.39680,
,,,0.011100000000,   1.39680,
,,,0.011110000000,   1.39680,
,,,0.011120000000,   1.39680,
,,,0.011130000000,   1.39680,
,,,0.011140000000,   1.39680,
,,,0.011150000000,   1.39680,
,,,0.011160000000,   1.39680,
,,,0.011170000000,   1.39680,
,,,0.011180000000,   1.39680,
,,,0.011190000000,   1.39680,
,,,0.011200000000,   1.39680,
,,,0.011210000000,   1.39680,
,,,0.011220000000,   1.39680,
,,,0.011230000000,   1.39680,
,,,0.011240000000,   1.39680,
,,,0.011250000000,   1.39680,
,,,0.011260000000,   1.39680,
,,,0.011270000000,   1.39680,
,,,0.011280000000,   1.39680,
,,,0.011290000000,   1.39680,
,,,0.011300000000,   1.39680,
,,,0.011310000000,   1.39680,
,,,0.011320000000,   1.39680,
,,,0.011330000000,   1.39680,
,,,0.011340000000,   1.39680,
,,,0.011350000000,   1.39680,
,,,0.011360000000,   1.39680,
,,,0.011370000000,   1.39680,
,,,0.011380000000,   1.39680,
,,,0.011390000000,   1.39680,
,,,0.011400000000,   1.39680,
,,,0.011410000000,   1.39760,
,,,0.011420000000,   1.39680,
,,,0.011430000000,   1.39760,
,,,0.011440000000,   1.39760,
,,,0.011450000000,   1.39760,
,,,0.011460000000,   1.39760,
,,,0.011470000000,   1.39760,
,,,0.011480000000,   1.39840,
,,,0.011490000000,   1.39840,
,,,0.011500000000,   1.39840,
,,,0.011510000000,   1.39840,
,,,0.011520000000,   1.39760,
,,,0.011530000000,   1.39840,
,,,0.011540000000,   1.39840,
,,,0.011550000000,   1.39840,
,,,0.011560000000,   1.39920,
,,,0.011570000000,   1.39920,
,,,0.011580000000,   1.39920,
,,,0.011590000000,   1.40000,
,,,0.011600000000,   1.39920,
,,,0.011610000000,   1.39920,
,,,0.011620000000,   1.40000,
,,,0.011630000000,   1.40000,
,,,0.011640000000,   1.40000,
,,,0.011650000000,   1.40000,
,,,0.011660000000,   1.40000,
,,,0.011670000000,   1.40080,
,,,0.011680000000,   1.40080,
,,,0.011690000000,   1.40080,
,,,0.011700000000,   1.40160,
,,,0.011710000000,   1.40160,
,,,0.011720000000,   1.40080,
,,,0.011730000000,   1.40160,
,,,0.011740000000,   1.40240,
,,,0.011750000000,   1.40240,
,,,0.011760000000,   1.40240,
,,,0.011770000000,   1.40320,
,,,0.011780000000,   1.40320,
,,,0.011790000000,   1.40320,
,,,0.011800000000,   1.40320,
,,,0.011810000000,   1.40320,
,,,0.011820000000,   1.40480,
,,,0.011830000000,   1.40400,
,,,0.011840000000,   1.40560,
,,,0.011850000000,   1.40480,
,,,0.011860000000,   1.40400,
,,,0.011870000000,   1.40480,
,,,0.011880000000,   1.40560,
,,,0.011890000000,   1.40560,
,,,0.011900000000,   1.40640,
,,,0.011910000000,   1.40720,
,,,0.011920000000,   1.40640,
,,,0.011930000000,   1.40720,
,,,0.011940000000,   1.40720,
,,,0.011950000000,   1.40800,
,,,0.011960000000,   1.40720,
,,,0.011970000000,   1.40800,
,,,0.011980000000,   1.40800,
,,,0.011990000000,   1.40880,
,,,0.012000000000,   1.40880,
,,,0.012010000000,   1.40880,
,,,0.012020000000,   1.40960,
,,,0.012030000000,   1.40960,
,,,0.012040000000,   1.40960,
,,,0.012050000000,   1.41040,
,,,0.012060000000,   1.41120,
,,,0.012070000000,   1.41120,
,,,0.012080000000,   1.41120,
,,,0.012090000000,   1.41200,
,,,0.012100000000,   1.41200,
,,,0.012110000000,   1.41280,
,,,0.012120000000,   1.41280,
,,,0.012130000000,   1.41200,
,,,0.012140000000,   1.41360,
,,,0.012150000000,   1.41360,
,,,0.012160000000,   1.41440,
,,,0.012170000000,   1.41440,
,,,0.012180000000,   1.41440,
,,,0.012190000000,   1.41520,
,,,0.012200000000,   1.41600,
,,,0.012210000000,   1.41600,
,,,0.012220000000,   1.41680,
,,,0.012230000000,   1.41680,
,,,0.012240000000,   1.41760,
,,,0.012250000000,   1.41680,
,,,0.012260000000,   1.41760,
,,,0.012270000000,   1.41840,
,,,0.012280000000,   1.41840,
,,,0.012290000000,   1.41840,
,,,0.012300000000,   1.41920,
,,,0.012310000000,   1.41920,
,,,0.012320000000,   1.41920,
,,,0.012330000000,   1.42000,
,,,0.012340000000,   1.42080,
,,,0.012350000000,   1.42080,
,,,0.012360000000,   1.42160,
,,,0.012370000000,   1.42160,
,,,0.012380000000,   1.42160,
,,,0.012390000000,   1.42080,
,,,0.012400000000,   1.42160,
,,,0.012410000000,   1.42320,
,,,0.012420000000,   1.42320,
,,,0.012430000000,   1.42320,
,,,0.012440000000,   1.42320,
,,,0.012450000000,   1.42320,
,,,0.012460000000,   1.42480,
,,,0.012470000000,   1.42480,
,,,0.012480000000,   1.42480,
,,,0.012490000000,   1.42480,
,,,0.012500000000,   1.42480,
,,,0.012510000000,   1.42560,
,,,0.012520000000,   1.42560,
,,,0.012530000000,   1.42560,
,,,0.012540000000,   1.42640,
,,,0.012550000000,   1.42640,
,,,0.012560000000,   1.42720,
,,,0.012570000000,   1.42720,
,,,0.012580000000,   1.42880,
,,,0.012590000000,   1.42800,
,,,0.012600000000,   1.42880,
,,,0.012610000000,   1.42880,
,,,0.012620000000,   1.42960,
,,,0.012630000000,   1.42880,
,,,0.012640000000,   1.42960,
,,,0.012650000000,   1.43040,
,,,0.012660000000,   1.43040,
,,,0.012670000000,   1.43040,
,,,0.012680000000,   1.43200,
,,,0.012690000000,   1.43040,
,,,0.012700000000,   1.43200,
,,,0.012710000000,   1.43200,
,,,0.012720000000,   1.43200,
,,,0.012730000000,   1.43200,
,,,0.012740000000,   1.43280,
,,,0.012750000000,   1.43280,
,,,0.012760000000,   1.43360,
,,,0.012770000000,   1.43360,
,,,0.012780000000,   1.43360,
,,,0.012790000000,   1.43440,
,,,0.012800000000,   1.43440,
,,,0.012810000000,   1.43520,
,,,0.012820000000,   1.43600,
,,,0.012830000000,   1.43520,
,,,0.012840000000,   1.43600,
,,,0.012850000000,   1.43680,
,,,0.012860000000,   1.43680,
,,,0.012870000000,   1.43680,
,,,0.012880000000,   1.43840,
,,,0.012890000000,   1.43680,
,,,0.012900000000,   1.43760,
,,,0.012910000000,   1.43760,
,,,0.012920000000,   1.43840,
,,,0.012930000000,   1.43840,
,,,0.012940000000,   1.43920,
,,,0.012950000000,   1.43920,
,,,0.012960000000,   1.43920,
,,,0.012970000000,   1.43920,
,,,0.012980000000,   1.43920,
,,,0.012990000000,   1.44000,
,,,0.013000000000,   1.44000,
,,,0.013010000000,   1.44080,
,,,0.013020000000,   1.44080,
,,,0.013030000000,   1.44160,
,,,0.013040000000,   1.44160,
,,,0.013050000000,   1.44240,
,,,0.013060000000,   1.44320,
,,,0.013070000000,   1.44240,
,,,0.013080000000,   1.44240,
,,,0.013090000000,   1.44400,
,,,0.013100000000,   1.44320,
,,,0.013110000000,   1.44480,
,,,0.013120000000,   1.44400,
,,,0.013130000000,   1.44480,
,,,0.013140000000,   1.44560,
,,,0.013150000000,   1.44560,
,,,0.013160000000,   1.44560,
,,,0.013170000000,   1.44640,
,,,0.013180000000,   1.44560,
,,,0.013190000000,   1.44640,
,,,0.013200000000,   1.44640,
,,,0.013210000000,   1.44640,
,,,0.013220000000,   1.44720,
,,,0.013230000000,   1.44640,
,,,0.013240000000,   1.44720,
,,,0.013250000000,   1.44800,
,,,0.013260000000,   1.44800,
,,,0.013270000000,   1.44880,
,,,0.013280000000,   1.44880,
,,,0.013290000000,   1.44880,
,,,0.013300000000,   1.44880,
,,,0.013310000000,   1.44960,
,,,0.013320000000,   1.44960,
,,,0.013330000000,   1.45040,
,,,0.013340000000,   1.44960,
,,,0.013350000000,   1.45200,
,,,0.013360000000,   1.45200,
,,,0.013370000000,   1.45120,
,,,0.013380000000,   1.45200,
,,,0.013390000000,   1.45200,
,,,0.013400000000,   1.45200,
,,,0.013410000000,   1.45280,
,,,0.013420000000,   1.45440,
,,,0.013430000000,   1.45280,
,,,0.013440000000,   1.45360,
,,,0.013450000000,   1.45360,
,,,0.013460000000,   1.45440,
,,,0.013470000000,   1.45440,
,,,0.013480000000,   1.45520,
,,,0.013490000000,   1.45440,
,,,0.013500000000,   1.45520,
,,,0.013510000000,   1.45520,
,,,0.013520000000,   1.45600,
,,,0.013530000000,   1.45600,
,,,0.013540000000,   1.45680,
,,,0.013550000000,   1.45600,
,,,0.013560000000,   1.45760,
,,,0.013570000000,   1.45680,
,,,0.013580000000,   1.45680,
,,,0.013590000000,   1.45680,
,,,0.013600000000,   1.45760,
,,,0.013610000000,   1.45760,
,,,0.013620000000,   1.45840,
,,,0.013630000000,   1.45840,
,,,0.013640000000,   1.45840,
,,,0.013650000000,   1.45920,
,,,0.013660000000,   1.45920,
,,,0.013670000000,   1.46000,
,,,0.013680000000,   1.45920,
,,,0.013690000000,   1.46000,
,,,0.013700000000,   1.46080,
,,,0.013710000000,   1.46080,
,,,0.013720000000,   1.46000,
,,,0.013730000000,   1.46080,
,,,0.013740000000,   1.46160,
,,,0.013750000000,   1.46080,
,,,0.013760000000,   1.46160,
,,,0.013770000000,   1.46160,
,,,0.013780000000,   1.46240,
,,,0.013790000000,   1.46240,
,,,0.013800000000,   1.46320,
,,,0.013810000000,   1.46320,
,,,0.013820000000,   1.46320,
,,,0.013830000000,   1.46320,
,,,0.013840000000,   1.46400,
,,,0.013850000000,   1.46400,
,,,0.013860000000,   1.46480,
,,,0.013870000000,   1.46400,
,,,0.013880000000,   1.46480,
,,,0.013890000000,   1.46560,
,,,0.013900000000,   1.46560,
,,,0.013910000000,   1.46480,
,,,0.013920000000,   1.46560,
,,,0.013930000000,   1.46640,
,,,0.013940000000,   1.46640,
,,,0.013950000000,   1.46560,
,,,0.013960000000,   1.46640,
,,,0.013970000000,   1.46640,
,,,0.013980000000,   1.46640,
,,,0.013990000000,   1.46800,
,,,0.014000000000,   1.46720,
,,,0.014010000000,   1.46880,
,,,0.014020000000,   1.46880,
,,,0.014030000000,   1.46880,
,,,0.014040000000,   1.46960,
,,,0.014050000000,   1.46960,
,,,0.014060000000,   1.46960,
,,,0.014070000000,   1.47040,
,,,0.014080000000,   1.47040,
,,,0.014090000000,   1.46960,
,,,0.014100000000,   1.47040,
,,,0.014110000000,   1.47120,
,,,0.014120000000,   1.47040,
,,,0.014130000000,   1.47120,
,,,0.014140000000,   1.47120,
,,,0.014150000000,   1.47200,
,,,0.014160000000,   1.47200,
,,,0.014170000000,   1.47200,
,,,0.014180000000,   1.47200,
,,,0.014190000000,   1.47280,
,,,0.014200000000,   1.47200,
,,,0.014210000000,   1.47280,
,,,0.014220000000,   1.47440,
,,,0.014230000000,   1.47360,
,,,0.014240000000,   1.47360,
,,,0.014250000000,   1.47440,
,,,0.014260000000,   1.47440,
,,,0.014270000000,   1.47440,
,,,0.014280000000,   1.47520,
,,,0.014290000000,   1.47440,
,,,0.014300000000,   1.47520,
,,,0.014310000000,   1.47520,
,,,0.014320000000,   1.47600,
,,,0.014330000000,   1.47600,
,,,0.014340000000,   1.47680,
,,,0.014350000000,   1.47680,
,,,0.014360000000,   1.47680,
,,,0.014370000000,   1.47680,
,,,0.014380000000,   1.47760,
,,,0.014390000000,   1.47680,
,,,0.014400000000,   1.47760,
,,,0.014410000000,   1.47840,
,,,0.014420000000,   1.47760,
,,,0.014430000000,   1.47840,
,,,0.014440000000,   1.47840,
,,,0.014450000000,   1.47920,
,,,0.014460000000,   1.47920,
,,,0.014470000000,   1.47840,
,,,0.014480000000,   1.48000,
,,,0.014490000000,   1.48000,
,,,0.014500000000,   1.48000,
,,,0.014510000000,   1.48000,
,,,0.014520000000,   1.48080,
,,,0.014530000000,   1.48080,
,,,0.014540000000,   1.48080,
,,,0.014550000000,   1.48160,
,,,0.014560000000,   1.48080,
,,,0.014570000000,   1.48080,
,,,0.014580000000,   1.48160,
,,,0.014590000000,   1.48160,
,,,0.014600000000,   1.48160,
,,,0.014610000000,   1.48240,
,,,0.014620000000,   1.48240,
,,,0.014630000000,   1.48240,
,,,0.014640000000,   1.48240,
,,,0.014650000000,   1.48400,
,,,0.014660000000,   1.48240,
,,,0.014670000000,   1.48400,
,,,0.014680000000,   1.48320,
,,,0.014690000000,   1.48400,
,,,0.014700000000,   1.48400,
,,,0.014710000000,   1.48400,
,,,0.014720000000,   1.48480,
,,,0.014730000000,   1.48480,
,,,0.014740000000,   1.48560,
,,,0.014750000000,   1.48480,
,,,0.014760000000,   1.48560,
,,,0.014770000000,   1.48560,
,,,0.014780000000,   1.48640,
,,,0.014790000000,   1.48640,
,,,0.014800000000,   1.48720,
,,,0.014810000000,   1.48640,
,,,0.014820000000,   1.48720,
,,,0.014830000000,   1.48640,
,,,0.014840000000,   1.48800,
,,,0.014850000000,   1.48720,
,,,0.014860000000,   1.48720,
,,,0.014870000000,   1.48800,
,,,0.014880000000,   1.48720,
,,,0.014890000000,   1.48880,
,,,0.014900000000,   1.48800,
,,,0.014910000000,   1.48800,
,,,0.014920000000,   1.48880,
,,,0.014930000000,   1.48960,
,,,0.014940000000,   1.48960,
,,,0.014950000000,   1.48960,
,,,0.014960000000,   1.48960,
,,,0.014970000000,   1.48960,
,,,0.014980000000,   1.48960,
,,,0.014990000000,   1.49040,
,,,0.015000000000,   1.49040,
,,,0.015010000000,   1.49120,
,,,0.015020000000,   1.49120,
,,,0.015030000000,   1.49120,
,,,0.015040000000,   1.49200,
,,,0.015050000000,   1.49120,
,,,0.015060000000,   1.49200,
,,,0.015070000000,   1.49280,
,,,0.015080000000,   1.49200,
,,,0.015090000000,   1.49360,
,,,0.015100000000,   1.49200,
,,,0.015110000000,   1.49200,
,,,0.015120000000,   1.49280,
,,,0.015130000000,   1.49360,
,,,0.015140000000,   1.49360,
,,,0.015150000000,   1.49440,
,,,0.015160000000,   1.49440,
,,,0.015170000000,   1.49360,
,,,0.015180000000,   1.49360,
,,,0.015190000000,   1.49360,
,,,0.015200000000,   1.49440,
,,,0.015210000000,   1.49440,
,,,0.015220000000,   1.49520,
,,,0.015230000000,   1.49520,
